
urviksten_missions1 = {
	slot = 1 
	generic = no
	ai = yes 
	has_country_shield = yes
	
	potential = {	
		OR = {
			tag = Z15
			AND = {
				tag = Z34
				was_tag =  Z15
			}
		}
	}
	
	urviksten_descendants_of_castan_ebonfrost = {
		icon = mission_diplomacy_missive
		position = 1
		required_missions = { }
		
		trigger = {
			legitimacy = 100
			prestige = 30
		}
		
		effect = {
			castonath_area = {
				add_permanent_claim = ROOT
			}
		}
	}
	
	urviksten_blood_of_victors = {
		icon = mission_rb_conquer_the_highlands
		position = 4
		required_missions = { urviksten_descendants_of_castan_ebonfrost }
		
		trigger = {
			NOT = {
				any_known_country = { 
					OR = {
						primary_culture = olavish
						primary_culture = east_dalr
						primary_culture = west_dalr
					}
					army_tradition = ROOT
				}
			}
		}
		
		effect = {
			if = {
				limit = {
					NOT = { mil = 6 }
				}
				change_mil = 1
			}
			else = {
				#add_mil_power = 25
				add_army_tradition = 10
			}
			add_country_modifier = {
				name = "urviksten_reconquest"
				duration = 36500
			}
		}
	}
	
	urviksten_thaw_the_trade = {
		icon = mission_steppe_warriors
		position = 6
		required_missions = { urviksten_ebonfrosts_landing }
		
		provinces_to_highlight = {
			OR = {	
				AND = {
					province_id = 1289
					NOT = { is_strongest_trade_power = ROOT }
				}
				AND = {	
					province_id = 1477
					NOT = {
						trade_share = {
							country = ROOT
							share = 30
						}
					}
				}
			}
		}		
		trigger = {	
		1289 = { is_strongest_trade_power = ROOT }
		1477 = {
				trade_share = {
					country = ROOT
						share = 30
				}
			}
		}
		effect = {
			add_mercantilism = 5
		}
	}
	
	
	urviksten_restore_the_cities = {
		icon = mission_seize_north_sea_trade
		position = 7
		required_missions = { urviksten_unified_vrorenmarch }
		
		provinces_to_highlight = {
			AND = {
				OR = {
					province_id = 701
					province_id = 717
					province_id = 718
					province_id = 715
				}
				OR = {
					has_trade_building_trigger = no
					has_tax_building_trigger = no
					NOT = { development = 15 }
				}
			}
		}
		trigger = {
			715 = { 
				has_trade_building_trigger = yes
				has_tax_building_trigger = yes
				development = 15
				owned_by = ROOT
			}
			701 = { 
				has_trade_building_trigger = yes
				has_tax_building_trigger = yes
				development = 15
				owned_by = ROOT
			}
			717 = { 
				has_trade_building_trigger = yes
				has_tax_building_trigger = yes
				development = 15
				owned_by = ROOT
			}
			718 = { 
				has_trade_building_trigger = yes
				has_tax_building_trigger = yes
				development = 15
				owned_by = ROOT
			}
		}
		
		effect = {
			add_country_modifier = {
				name = urviksten_restored_cities
				duration = 7300
			}
		}
	}
	
	urviksten_the_great_migration = {
		icon = fortress_of_belgrade
		position = 8
		required_missions = { urviksten_nyr_ebonmark }

		provinces_to_highlight = {
			OR = {
				AND = {
					NOT = {owned_by = ROOT}
					OR = {	
						area = esfjall_area
						area = naugsvol_area
						area = olavslund_area
						area = nyrford_area
					}
				}
				AND = {
					OR = {
						NOT = {owned_by = ROOT}
						NOT = { is_core = ROOT }
					}
					OR = {
						area = athfork_area
						area = ebonmarck_area
					}
				}
			}
		}
		trigger = {
			ebonmarck_area = {
				type = all
				owned_by = ROOT
				is_core = ROOT
			}
			athfork_area = {
				type = all
				owned_by = ROOT
				is_core = ROOT
			}
			nyrford_area = {
				type = all
				country_or_non_sovereign_subject_holds = ROOT
			}
			olavslund_area = {
				type = all
				country_or_non_sovereign_subject_holds = ROOT
			}
			naugsvol_area = {
				type = all
				country_or_non_sovereign_subject_holds = ROOT
			}
			esfjall_area = {
				type = all
				country_or_non_sovereign_subject_holds = ROOT
			}
			adm_power = 100
			dip_power = 100
			mil_power = 100
			treasury = 500
		}

		
		effect = {
			add_adm_power  = -100
			add_dip_power  = -100
			add_mil_power  = -100
			add_treasury = -500
			esfjall_area = { 
					add_base_tax = -1
					add_base_production = -1
					add_base_manpower = -1
			}
			naugsvol_area = { 
					add_base_tax = -1
					add_base_production = -1
					add_base_manpower = -1
			}		
			olavslund_area = { 
					add_base_tax = -1
					add_base_production = -1
					add_base_manpower = -1
			}		
			nyrford_area = { 
					add_base_tax = -1
					add_base_production = -1
					add_base_manpower = -1
			}	
			athfork_area = { 
					add_base_tax = 3
					add_base_production = 3
					add_base_manpower = 3
					change_culture = ROOT
					change_religion = ROOT
			}					
			ebonmarck_area = { 
					add_base_tax = 3
					add_base_production = 3
					add_base_manpower = 3
					change_culture = ROOT
					change_religion = ROOT
			}		
		}
	}
	
	urviksten_crossing_the_bay = {
		icon = mission_conquer_riga
		position = 9
		required_missions = { urviksten_the_north_reclaimed }

		provinces_to_highlight = {
			province_id = 707
			OR = {
				NOT = { owned_by = ROOT }
				NOT = { is_core = ROOT }
				NOT = { province_has_current_tech_fort_trigger = yes }
			}
		}
		trigger = {
			707 = {
				province_has_current_tech_fort_trigger = yes
				owned_by = ROOT
			}
		}
		
		effect = {
			western_alenic_reach = {
				limit = {
					NOT = { is_core = ROOT }
					NOT = { is_permanent_claim = ROOT }
				}
				add_permanent_claim = ROOT
			}
		}
	}
	
	urviksten_the_reach = {
		icon = kingdom_of_lombardy
		position = 10
		required_missions = { urviksten_crossing_the_bay }

		provinces_to_highlight = {
			province_group = western_alenic_reach 
			NOT = { country_or_non_sovereign_subject_holds = ROOT }
		}
		
		trigger = {
			western_alenic_reach = {
				type = all
				country_or_non_sovereign_subject_holds = ROOT
			}
		}
		
		effect = {
			country_event = { id = flavor_urviksten.03 }
		}
	}
	
	urviksten_song_of_the_forefathers = {
		icon = mission_norse_faith
		position = 11
		required_missions = { urviksten_the_reach }

		provinces_to_highlight = {
			region = alenic_reach_region
			OR = {
				has_tax_building_trigger = no
				local_autonomy = 1
				NOT = { religion = skaldhyrric_faith }
			}
		}
		
		trigger = {
			num_of_provinces_owned_or_owned_by_non_sovereign_subjects_with = {
				value = 5
				region = alenic_reach_region
				has_tax_building_trigger = yes
				NOT = {
					local_autonomy = 1
				}
				religion = skaldhyrric_faith
			}
			AND = {
				advisor = inquisitor
				has_adm_advisor_2 = yes
			}	
		}
		effect = {
			add_country_modifier = {
				name = urviksten_back_to_the_old_roots
				duration = -1
			}
		}	
	}
}

urviksten_missions2 = {
	slot = 2 
	generic = no
	ai = yes 
	has_country_shield = yes
	
	potential = {
		OR = {
			tag = Z15
			AND = {
				tag = Z34
				was_tag =  Z15
			}
		}
	}
	
	urviksten_naugsvol_avnkaup = {
		icon = mission_duel_snow
		position = 2
		required_missions = { urviksten_assemble_the_men }

		provinces_to_highlight = {
			OR = {
				area = naugsvol_area
				area = nyrford_area
				area = olavslund_area
				area = elkaesals_slumber_area 
			}
			NOT = { owned_by = ROOT }
		}
		
		trigger = {
			naugsvol_area = {
				owned_by = ROOT
				type = all
			}
			nyrford_area = {
				owned_by = ROOT
				type = all
			}
			olavslund_area = {
				owned_by = ROOT
				type = all
			}
			elkaesals_slumber_area  = {
				owned_by = ROOT
				type = all
			}
		}
		
		effect = {
			add_prestige = 10
			add_country_modifier = {
				name = "urviksten_olavish_warriors"
				duration = 3650
			}
		}
	}
	
	urviksten_olavlund = {
		icon = found_the_vatican_library
		position = 3
		required_missions = { urviksten_naugsvol_avnkaup }

		provinces_to_highlight = {
			province_id = 976
			OR = { 
				NOT = { owned_by = ROOT }
				local_autonomy = 1
			}
		}
		
		trigger = {
			976 = {
				owned_by = ROOT
				NOT = { local_autonomy = 1 }
			}	
		}
		
		effect = {
			add_country_modifier = {
				name = "urviksten_subservant_skalds"
				duration = -1
			}
			custom_tooltip = urviksten_skaldic_ebonsteel_reccords			
		}
	}
	
	urviksten_ebonfrosts_landing = {
		icon = mission_rb_unite_the_clans
		position = 5
		required_missions = {
			urviksten_olavlund
			urviksten_blood_of_victors
			urviksten_claim_the_giants_tears
		}

		provinces_to_highlight = {
			area = vrorenmarch_area
			OR = {
				NOT = { owned_by = ROOT }
				NOT = { is_core = ROOT }
			}
		}
		
		trigger = {
			vrorenmarch_area = {
				owned_by = ROOT
				is_core = ROOT
				type = all
			}
		}
		
		effect = {
			if = {
				limit = {
					government_rank = 1
				}
				set_government_rank = 2
			}
			else = {
				add_legitimacy = 25
			}
			740 = {
				change_culture = ROOT
				change_religion = ROOT
			}
			736 = {
				change_culture = ROOT
				change_religion = ROOT
			}
			cedesck_area = {
				add_permanent_claim = ROOT
			}
			vrorenwall_area = {
				add_permanent_claim = ROOT
			}
			sondaar_area = {
				add_permanent_claim = ROOT
			}
			wudhal_area = {
				add_permanent_claim = ROOT
			}
			gulletpeak_area = {
				add_permanent_claim = ROOT
			}
			east_chillsbay_area = {
				add_permanent_claim = ROOT
			}
			707 = {
				add_permanent_claim = ROOT
			}
		}
	}
	
	urviksten_unified_vrorenmarch = {
		icon = mission_white_tower
		position = 6
		required_missions = { urviksten_ebonfrosts_landing }

		provinces_to_highlight = {
		OR = {
			area = vrorenwall_area
			area = cedesck_area
			area = sondaar_area
			area = wudhal_area
			area = gulletpeak_area
			area = east_chillsbay_area	
			}
			NOT = { owned_by = ROOT }
		}
		
		trigger = {
			vrorenwall_area = {
				type = all
				owned_by = ROOT
			}
			east_chillsbay_area = {
				type = all
				owned_by = ROOT
			}
			cedesck_area = {
				type = all
				owned_by = ROOT
			}
			sondaar_area = {
				type = all
				owned_by = ROOT
			}
			gulletpeak_area = {
				type = all
				owned_by = ROOT
			}
			wudhal_area = {
				type = all
				owned_by = ROOT
			}
		}
		
		effect = {
			set_capital = 740
			740 = {
				add_base_tax = 3
				add_base_production = 3
				add_base_manpower = 3
			}
			984 = {
				add_base_tax = -2
				add_base_production = -2
				add_base_manpower = -2
			}
			athfork_area = {
				add_permanent_claim = ROOT
			}
			ebonmarck_area = {
				add_permanent_claim = ROOT
			}
			balmire_area = {
				add_permanent_claim = ROOT
			}
			cannwood_area = {
				add_permanent_claim = ROOT
			}
			middle_alen_area = {
				add_permanent_claim = ROOT
			}
			751 = {
				add_permanent_claim = ROOT
			}
			753 = {
				add_permanent_claim = ROOT
			}
			west_castanor_region = {
				discover_country = ROOT
			}	
			inner_castanor_region = {
				discover_country = ROOT
			}	
			south_castanor_region = {
				discover_country = ROOT
			}	
			country_event = { id = flavor_urviksten.05 }
		}
	}
	
	
	urviksten_nyr_ebonmark = {
		icon = the_great_city_of_buda
		position = 7
		required_missions = { urviksten_unified_vrorenmarch }
		
		provinces_to_highlight = {
			OR = {
				area = ebonmarck_area
				area = athfork_area
				}
			OR = {
				NOT = { owned_by = ROOT }	
				NOT = { is_core = ROOT }
			}
		}
		
		trigger = {
			ebonmarck_area = {
				owned_by = ROOT
				is_core = ROOT
				type = all
			}
			athfork_area = {
				owned_by = ROOT
				is_core = ROOT
				type = all
			}
		}
		
		effect = {
			override_country_name = EBONMARCK
			add_stability_or_adm_power = yes
			set_capital = 745
			745 = {
					add_base_tax = 3
					add_base_production = 3
					add_base_manpower = 3
					change_culture = ROOT
					change_religion = ROOT
			}
			740 = {
					add_base_tax = -3
					add_base_production = -3
					add_base_manpower = -3
			}
		}	
	}
	
	urviksten_the_north_reclaimed = {
		icon = mission_white_tower
		position = 8
		required_missions = { urviksten_nyr_ebonmark }

		provinces_to_highlight = {
		OR = {
			area = balmire_area
			area = cannwood_area
			area = middle_alen_area	
			}
		OR = {
			NOT = { owned_by = ROOT }
			NOT = { is_core = ROOT }
		}
		}
		
		trigger = {
			balmire_area = {
				type = all
				owned_by = ROOT
				is_core = ROOT
			}
			cannwood_area = {
				type = all
				owned_by = ROOT
				is_core = ROOT
			}
			middle_alen_area = {
				type = all
				owned_by = ROOT
				is_core = ROOT
			}
			229 = {
				province_has_current_tech_fort_trigger = yes
			}
		}

		effect = {
			northyl_area = {
				add_permanent_claim = ROOT
			}
			westgate_area = {
				add_permanent_claim = ROOT
			}
			lower_nath_area = {
				add_permanent_claim = ROOT
			}
			nortmere_area = {
				add_permanent_claim = ROOT
			}
			756 = {
				add_permanent_claim = ROOT
			}
			add_country_modifier = {
				name = "urviksten_the_path_lies_open"
				duration = 10950 
			}
		}
	}
	
	urviksten_breach_westgate = {
		icon = defend_the_city
		position = 9
		required_missions = { urviksten_the_north_reclaimed }
		
		provinces_to_highlight = {
		OR ={
			area = westgate_area
			area = northyl_area 
			area = lower_nath_area
			area = nortmere_area
			province_id = 756
			}
			NOT = { owned_by = ROOT }
		}
		
		trigger = {
			westgate_area = {
				owned_by = ROOT
				type = all
			}
			northyl_area  = {
				type = all
				owned_by = ROOT
			}
			nortmere_area = {
				type = all
				owned_by = ROOT
			}
			lower_nath_area = {
				type = all
				owned_by = ROOT
			}
			756 = {
				owned_by = ROOT
			}			
		}
		
		effect = {
			westgate_area = {
				add_base_manpower = 1
			}
			trialmount_area = {
				add_permanent_claim = ROOT
			}
			upper_nath_area = {
				add_permanent_claim = ROOT
			}
			serpentsmarck_area = {
				add_permanent_claim = ROOT
			}
			bradescker_area = {
				add_permanent_claim = ROOT
			}
			southgate_area = {
				add_permanent_claim = ROOT
			}
			hidden_effect = {
				country_event = {
					id = flavor_urviksten.04
					days = 365
				}
			}
		}
	}
	
	urviksten_trialmount = {
		icon = alpine_defenses
		position = 10
		required_missions = { urviksten_breach_westgate }
		
		provinces_to_highlight = {
			area = trialmount_area
			NOT = { owned_by = ROOT }
		}
		
		trigger = {
			trialmount_area = {
				owned_by = ROOT
				type = all
			}
		}
		
		effect = {
			trialmount_area = {
				add_base_manpower = 1
				add_base_production = 1 
				add_base_tax = 1
				change_culture = ROOT
				change_religion = ROOT
			}
			840 = {
				move_capital_effect = yes 
			}
			inner_castanor_region = {
				add_permanent_claim = ROOT
			}	
		}
	}
	
	urviksten_restore_trialmount = {
		icon = spa_new_capital
		position = 11
		required_missions = { urviksten_trialmount }
		
		provinces_to_highlight = {
			province_id = 840
			OR = {
				NOT = { owned_by = ROOT }
				if = {
					limit = { has_dlc = "Leviathan" }
					OR = {
						has_great_project = {
							type = the_north_citadel
							tier = 0
						}
						has_great_project = {
							type = the_north_citadel
							tier = 1
						}
					}
				}
				else = {
					OR = {
						NOT = {has_building = fort_17th}
						NOT = {has_building = fort_18th}
					}
				}
				has_manpower_building_trigger = no
				has_tax_building_trigger = no
				has_trade_building_trigger = no
				has_production_or_gold_building_trigger = no
				NOT = {development = 25}
			}
		}
		
		trigger = {
			840 = {
				country_or_non_sovereign_subject_holds = ROOT
				development = 25
				if = {
					limit = { has_dlc = "Leviathan" }
					OR = {
						has_great_project = {
							type = the_north_citadel
							tier = 2
						}
						has_great_project = {
							type = the_north_citadel
							tier = 3
						}
					}
				}
				else = {
					OR = {
						has_building = fort_17th
						has_building = fort_18th
					}
				}
				has_manpower_building_trigger = yes
				has_tax_building_trigger = yes
				has_trade_building_trigger = yes
				has_production_or_gold_building_trigger = yes
			}
			treasury = 400
		}
		
		effect = {
			set_country_flag = north_citadel_aqueduct_rebuilt
			840 = {
				add_province_modifier = {
					name = castanor_rebuilding_flavour
					duration = 365
				}
			}
			hidden_effect = {
				country_event = {
					id = flavor_castanor.40
					days = 365
				}
			}
			add_treasury = -400
		}
		
	}	
}

urviksten_missions3 = {
	slot = 3 
	generic = no
	ai = yes 
	has_country_shield = yes
	
	potential = {	
		OR = {
			tag = Z15
			AND = {
				tag = Z34
				was_tag =  Z15
			}
		}
	}
	
	urviksten_assemble_the_men = {
		icon = mission_viking
		position = 1
		
		trigger = {
			army_size_percentage = 0.9
		}
		
		effect = {
			naugsvol_area = {
				add_permanent_claim = ROOT
			}
			nyrford_area = {
				add_permanent_claim = ROOT
			}
			olavslund_area = {
				add_permanent_claim = ROOT
			}
			elkaesals_slumber_area = {
				add_permanent_claim = ROOT
			}
			add_country_modifier = {
				name = "urviksten_prepared_for_war"
				duration = 9125
			}
		}
	}
	
	urviksten_fortify_against_graytide = {
		icon = mission_mountain_castle
		position = 3
		required_missions = { 
			urviksten_assemble_the_men
		}
		
		trigger = {
			treasury = 50
			mil_power = 25
		}
		
		effect = {
			984 = {
				add_building_construction = {
					building = fort_15th
					speed = 0.5
					cost = 0
				}
				add_province_modifier = {
					name = "urviksten_fortress"
					duration = 9125
				}
				northern_giants_tears_area = {
					discover_country = ROOT
				}
				southern_giants_tears_area = {
					discover_country = ROOT
				}					
			}
			add_treasury = -50
		}
	}
	urviksten_claim_the_giants_tears = {
		icon = mission_face_off
		position = 4
		required_missions = { urviksten_fortify_against_graytide }
		
		provinces_to_highlight = {
			area = northern_giants_tears_area
			OR = {
				NOT = { country_or_non_sovereign_subject_holds = ROOT }
				is_city = no
			}
		}
		
		trigger = {
			northern_giants_tears_area = {
				country_or_non_sovereign_subject_holds = ROOT
			}
		}
		
		effect = {

			northern_giants_tears_area = {
				add_permanent_claim = ROOT
			}
			southern_giants_tears_area = {
				add_permanent_claim = ROOT
			}
			vrorenmarch_area = {
				add_permanent_claim = ROOT
			}
			add_country_modifier = {
				name = "urviksten_giants_tears_settlement"
				duration = 9125
			}
		}
	}
	urviksten_settle_esfjall = {
		icon = mission_alone_in_the_wood
		position = 5
		required_missions = { 
			urviksten_castletown
			urviksten_claim_the_giants_tears
		}

		provinces_to_highlight = {
			OR = {
				province_id = 6284
				area = northern_giants_tears_area
			}	
			NOT = { owned_by = ROOT }
		}
		
		trigger = {
			AND = {
				northern_giants_tears_area = {
					type = all
					owned_by = ROOT
					is_city = yes
				}
				6284 = {
					owned_by = ROOT
				}
				years_of_income = 0.75
			}
		}
		effect = {
			add_years_of_income = -0.75
			986 = {
				add_base_tax = 1
				add_base_production = 1
				add_base_manpower = 1
			}
			gifrbygd_area = {
				discover_country = ROOT
			}	
			zeindalr_area = {
				discover_country = ROOT
			}			
		}
	}
	
	urviksten_gifrbygd = {
		icon = mission_rb_colonise_canada
		position = 6
		required_missions = { urviksten_settle_esfjall }
		
		provinces_to_highlight = {
			OR = {
				area = gifrbygd_area
				area = zeindalr_area
				area = gerudia1_area
				area = gerudian_area
			}	
			NOT = { country_or_non_sovereign_subject_holds = ROOT }
		}
		
		trigger = {
			gifrbygd_area = {
				country_or_non_sovereign_subject_holds = ROOT
				type = all
			}
			zeindalr_area = {
				country_or_non_sovereign_subject_holds = ROOT
				type = all
			}
			gerudia1_area = {
				country_or_non_sovereign_subject_holds = ROOT
				type = all
			}
			gerudian_area = {
				country_or_non_sovereign_subject_holds = ROOT
				type = all
			}
		}
		
		effect = {
			2834 = {
				center_of_trade = 1
				#add_province_modifier = {
				#	name = "urviksten_gerudian_frontier_trade"
				#	duration = -1
				#}
			}
			add_country_modifier = {
				name = "urviksten_pioneering_spirit"
				duration = 9175
			}
			olavlund_region = {
				discover_country = ROOT
			}
			gerudian_frontier_region = {
				discover_country = ROOT
			}	
			northern_pass_region = {
				discover_country = ROOT
			}				
			northern_pass_region = {
				limit = {
					NOT = { is_core = ROOT }
					NOT = { is_permanent_claim = ROOT }
				}
				add_permanent_claim = ROOT
			}
			olavlund_region = {
				limit = {
					NOT = { is_core = ROOT }
					NOT = { is_permanent_claim = ROOT }
				}
				add_permanent_claim = ROOT
			}
			gerudian_frontier_region = {
				limit = {
					NOT = { is_core = ROOT }
					NOT = { is_permanent_claim = ROOT }
				}
				add_permanent_claim = ROOT
			}
		}	
	}
	
	urviksten_northern_pass = {
		icon = the_russian_campaign
		position = 7
		required_missions = { urviksten_gifrbygd }
		
		provinces_to_highlight = {
			region = northern_pass_region
			NOT = { country_or_non_sovereign_subject_holds = ROOT }
		}
		
		trigger = {
			num_of_provinces_owned_or_owned_by_non_sovereign_subjects_with = {
				value = 10
				region = northern_pass_region
			}
		}
		
		effect = {
			add_ruler_modifier = {
				name = urviksten_avenger_of_castanor
				duration = -1
			}
		}
	}
	urviksten_far_gerudian_rangers = {
		icon = mission_alone_in_the_forest
		position = 8
		required_missions = { urviksten_northern_pass }
		
		provinces_to_highlight = {
			OR = {
				AND = {
					area = gifrbygd_area
					NOT = { owned_by = ROOT }
				}
				AND = {
					area = gullmork_area
					NOT = { owned_by = ROOT }
				}
				AND = {
					province_id = 2834
					NOT = {
						has_forcelimit_building_trigger = yes
						has_trade_building_trigger = yes
					}
				}
				AND = {
					province_id = 2830
					NOT = {
						has_forcelimit_building_trigger = yes
						has_trade_building_trigger = yes
					}
				}
			}
		}
		
		trigger = {
			gifrbygd_area = {
				owned_by = ROOT
				type = all
			}
			gullmork_area = {
				owned_by = ROOT
				type = all
			}
			2834 = {
				OR = {
					has_forcelimit_building_trigger = yes
					has_trade_building_trigger =  yes
				}
			}
			2830 = {
				OR = {
					has_forcelimit_building_trigger = yes
					has_trade_building_trigger =  yes
				}
			}
		}
		
		effect = {
			2834 = { add_base_production = 1 }
			2830 = { add_base_production = 1 }
			add_country_modifier = {
				name = "urviksten_far_gerudian_rangers"
				duration = 10950
			}
		}
	}	

	urviksten_the_lonely_mountain = {
		icon = the_alpine_wall
		position = 9
		required_missions = { urviksten_far_gerudian_rangers }
		
		provinces_to_highlight = {
			area = lonely_mountains_area
			NOT = { owned_by = ROOT }
		}
		
		trigger = {
			lonely_mountains_area = {
				owned_by = ROOT
				type = all
			}
			treasury = 250
		}
		
		effect = {
			add_treasury = -250
			lonely_mountains_area = {
				add_permanent_province_modifier = {
					name = urviksten_the_iron_mountains
					duration = 7300
				}
			}
		}
	}	

	urviksten_tvillingarna = {
		icon = mission_expand_into_the_forest
		position = 10
		required_missions = { urviksten_the_lonely_mountain }
		
		provinces_to_highlight = {
			OR = {
				AND = {
					province_id = 4182
					OR = {
						NOT = { owned_by = ROOT }
						has_trade_building_trigger = no
						has_production_or_gold_building_trigger = no
					}
				}
				AND = {
					province_id = 4202
					OR = {
						NOT = { owned_by = ROOT }
						has_trade_building_trigger = no
						has_production_or_gold_building_trigger = no
					}
				}	
			}
		}
		
		trigger = {
			4182 = {
				owned_by = ROOT
				has_trade_building_trigger = yes
				has_production_or_gold_building_trigger = yes
			}
			4202 = {
				owned_by = ROOT
				has_trade_building_trigger = yes
				has_production_or_gold_building_trigger = yes
			}				
		}
		
		effect = {
			4182 = { 
				add_province_modifier = {
					name = "urviksten_tvillingarna_mod"
					duration = 3650
				}
				change_province_name = "Vatnmaln"
			}
			4202 = { 
				add_province_modifier = {
					name = "urviksten_tvillingarna_mod"
					duration = 3650
				}
				change_province_name = "Vidrgardr"
			}
		}
	}	
	
	urviksten_veins_of_steel = {
		icon = mission_iron_and_copper
		position = 11
		required_missions = { urviksten_tvillingarna }
		
		provinces_to_highlight = {
			area = lonely_mountains_area
			OR = {
				NOT = {owned_by = ROOT}
				NOT = {base_production = 5}
				AND = {
					has_production_or_gold_building_trigger = no
					NOT = {trade_goods = mithril}
				}
			}
		}
		
		trigger = {
			lonely_mountains_area = {
				owned_by = ROOT
				type = all
				base_production = 5
				OR = { 
					has_building = workshop
					has_building = counting_house
					trade_goods = gold
					trade_goods = mithril
				}
			}
		}
		
		effect = {
			lonely_mountains_area = {
				limit = {
					NOT = {
						OR = {
							trade_goods = gold
							trade_goods = mithril
						}
					}
				}
				change_trade_goods = iron
				add_base_production = 2
				add_permanent_province_modifier = {
					name = urviksten_veins_of_steel_mod
					duration = -1
				}
			}
		}
	}
}	

blastanor_missions3 = {
	slot = 3 
	generic = no
	ai = yes 
	has_country_shield = yes
	
	potential = {	
		OR = {
			tag = Z15
			AND = {
				tag = Z34
				was_tag =  Z15
			}
		}
	}	
	
	urviksten_gerudian_trials = {
		icon = secure_our_rule
		position = 12
		required_missions = {
			urviksten_restore_trialmount
		}
		
		provinces_to_highlight = {
			OR = {
				AND = {
					area = trialmount_area
					NOT = { owned_by = ROOT }
				}
				AND = {
					province_id = 840
					OR = {
						has_courthouse_building_trigger = no
						NOT = { num_of_times_improved = 5 }
						AND = {
							province_has_current_tech_fort_trigger = no
							has_tax_building_trigger = no
						}
					}
				}
			}
		}
		
		trigger = {
			trialmount_area =  {
				owned_by = ROOT
				type = all
			}
			840 = {
				has_courthouse_building_trigger = yes
				num_of_times_improved = 5
				OR = {
					province_has_current_tech_fort_trigger = yes
					has_tax_building_trigger = yes
				}
			}
		}
		effect = {
			840 = {
				add_province_modifier = {
					name = "urviksten_ebonfrost_trials"
					duration = -1
				}
			}
			custom_tooltip = urviksten_gerudian_trials_tooltip
		}
	}
	
	urviksten_castanor = {
		icon = public_works
		position = 13
		required_missions = { urviksten_gerudian_trials }
		
		provinces_to_highlight = {
			OR = {
				AND = {
					area = southgate_area
					NOT = { owned_by = ROOT }
				}
				AND = {
					area = upper_nath_area
					NOT = { owned_by = ROOT }
				}
				AND = {
					area = nortmere_area
					NOT = { owned_by = ROOT }
				}
				AND = {
					area = castonath_area
					OR = {
						NOT = { base_tax = 8 }
						NOT = { base_production = 8 }
						NOT = { base_manpower = 8 }
						AND = {
							has_tax_building_trigger = no
							has_trade_building_trigger = no
							has_production_building_trigger = no
						}
					}
				}
			}
		}
		
		trigger = {
			castonath_area = {
				base_tax = 8
				base_production = 8
				base_manpower = 8
				OR = {
					has_tax_building_trigger = yes
					has_trade_building_trigger = yes
					has_production_building_trigger = yes
				}
				type = all
			}
			southgate_area = {
				owned_by = ROOT
				type = all
			}
			upper_nath_area = {
				owned_by = ROOT
				type = all
			}
			nortmere_area = {
				owned_by = ROOT
				type = all
			}
		}
		
		effect = {
			castonath_area = {
				add_prosperity = 50
				add_province_modifier = {
					name = "urviksten_castonborg"
					duration = 10950
				}
			}
			custom_tooltip = urviksten_white_walls_tt
			hidden_effect = {
				inner_castanor_region = {
					limit = {
						has_province_modifier = white_walls_of_castanor
					}
					add_permanent_claim = ROOT
				}
			}
		}
	}
}

urviksten_missions4 = {
	slot = 4 
	generic = no
	ai = yes 
	has_country_shield = yes
	
	potential = {	
		OR = {
			tag = Z15
			AND = {
				tag = Z34
				was_tag =  Z15
			}
		}
	}
	
	urviksten_found_bpc = {
		icon = mission_alone_in_the_wood
		position = 3
		required_missions = { 
			urviksten_black_pines

		}

		provinces_to_highlight = {
			OR = {
				AND = {
					province_id = 978
					OR = {
						NOT = { owned_by = ROOT }
						NOT = { base_production = 10 }
						has_shipyard_building_trigger = no
						has_production_or_gold_building_trigger = no
					}
				}	
				AND = {
					province_id = 980
					OR = {
						has_production_building_trigger = no
						NOT = { owned_by = ROOT }
					}
				}
				AND = {
					province_id = 979
					OR = {
						has_production_building_trigger = no
						NOT = { owned_by = ROOT }
					}
				}
			}	
		}
		trigger = {
			978 = {
				has_shipyard_building_trigger = yes
				has_production_or_gold_building_trigger = yes
				base_production = 10
				owned_by = ROOT
			}
			980 = {
				has_production_or_gold_building_trigger = yes
				owned_by = ROOT
			}	
			979 = {
				has_production_or_gold_building_trigger = no
				owned_by = ROOT
			}	
		}
		
		effect = {
			978 = {
				add_permanent_province_modifier = {
					name = urviksten_bpchq
					duration = -1
				}
			}
			979 = {			
				add_permanent_province_modifier = {
					name = "urviksten_bpc_logging"
					duration = -1
				}
			}
			980 = {			
				add_permanent_province_modifier = {
					name = "urviksten_bpc_logging"
					duration = -1
				}			
			}
		}	
	}
	urviksten_castletown = {
		icon = protect_against_the_turks
		position = 4
		required_missions = { urviksten_fortify_against_graytide }

		provinces_to_highlight = {
			OR = {
				AND = {
					province_id = 984
					province_has_current_tech_fort_trigger = no
				}
				owner = {
					is_or_was_tag = { tag = Z18 }
					NOT = { truce_with = ROOT }
				}
			}
		}
		
		trigger = {
			984 = {
				province_has_current_tech_fort_trigger = yes
			}
			OR = {
				OR = {
					truce_with = Z18
					truce_with = Z50
				}	
				AND = {
					NOT = {
						exists = Z18
						exists = Z50
					}
				}	
			}
		}
		
		effect = {
			984 = {
				add_base_tax = 2
				add_base_production = 1
				add_base_manpower = 1
				add_permanent_province_modifier = {
					name = "urviksten_castletown"
					duration = 7300
				}
			}
		}
	}
	
	urviksten_restart_ebonsteel_forge = {
		icon = mission_smith
		position = 5
		required_missions = { urviksten_castletown }
		
		provinces_to_highlight = {
			province_id = 984
			has_manufactory_trigger = no
		}
		
		trigger = {
			984 = {
				has_manufactory_trigger = yes
			}
			army_size = 30
		}
		
		effect = {
			984 = {
				add_permanent_province_modifier = {
					name = "urviksten_ebonsteel_forge"
					duration = -1
				}
			}
			add_country_modifier = {
				name = "urviksten_streamlined_ebonsteel"
				duration = -1
			}
		}
	}
	
	urviksten_dalr_mines = {
		icon = claim_the_borderlands
		position = 7
		required_missions = { 
			urviksten_the_bears_den
		}

		provinces_to_highlight = {
			area = dalrfjall_area
			OR = {
				NOT = { owned_by = ROOT }
				OR = {
					has_production_or_gold_building_trigger = no
					NOT = {base_production = 4}
				}
			}
		}
		trigger = {
			dalrfjall_area = {
				type = all
				owned_by = ROOT
				base_production = 4
				has_production_or_gold_building_trigger = yes
			}
		}
		
		effect = {
			if = {
				limit = { 994 = { NOT = { trade_goods = gold } } }
				994 = {
					change_trade_goods = iron
					add_base_production = 2
				}
			}
			if = {
				limit = { 1000 = { NOT = { trade_goods = gold} } }
				1000 = {
					change_trade_goods = copper
					add_base_production = 2
				}
			}
			if = {
				limit = { 6267 = { NOT = { trade_goods = gold} } }
				6267 = {
					change_trade_goods = iron
					add_base_production = 2
				}
			}
		}
	}
	
	urviksten_fjarforska = {
		icon = mission_hessian_jaeger_corps
		position = 9
		required_missions = { 
			urviksten_far_gerudian_rangers
		}

		provinces_to_highlight = {
			OR = {
				area = upper_logr_area
				area = middle_logr_area
				area = hjyrtsikki_area
				area = fyllstyn_area
			}
			has_production_or_gold_building_trigger = no
		}
		
		trigger = {
			upper_logr_area = {
				type = all
				owned_by = ROOT
				has_production_or_gold_building_trigger = yes
			}
			middle_logr_area = {
				type = all
				owned_by = ROOT
				has_production_or_gold_building_trigger = yes
			}
			hjyrtsikki_area = {
				type = all
				owned_by = ROOT
				has_production_or_gold_building_trigger = yes
			}
			fyllstyn_area = {
				type = all
				owned_by = ROOT
				has_production_or_gold_building_trigger = yes
			}
			army_tradition = 40
			4182 = { 
				owned_by = ROOT
			}
			mission_completed = urviksten_found_bpc
		}
		
		effect = {
			unlock_merc_company = {
				merc_company = merc_fjarforska
				free_merc = yes
			}
			upper_logr_area = {
				add_permanent_province_modifier = {
					name = "urviksten_bpc_logging"
					duration = -1
				}
			}
			middle_logr_area = {
				add_permanent_province_modifier  = {
					name = "urviksten_bpc_logging"
					duration = -1
				}
			}
			hjyrtsikki_area = {
				add_permanent_province_modifier = {
					name = "urviksten_bpc_logging"
					duration = -1
				}
			}
			fyllstyn_area = {
				add_permanent_province_modifier = {
					name = "urviksten_bpc_logging"
					duration = -1
				}
			}
			978 = {
				if = { 
					limit = {
						has_province_modifier = urviksten_bpchq
					}
					remove_province_modifier = urviksten_bpchq
					add_permanent_province_modifier = {
						name = urviksten_bpchq_ii
						duration = -1
					}
				}
				else_if = {
					limit = {
						has_province_modifier = urviksten_bpchq_ii
					}
					remove_province_modifier = urviksten_bpchq_ii
					add_permanent_province_modifier = {
						name = urviksten_bpchq_iii
						duration = -1
					}
				}			
				else_if = {
					limit = {
						has_province_modifier = urviksten_bpchq_iii
					}
					remove_province_modifier = urviksten_bpchq_iii
					add_permanent_province_modifier = {
						name = urviksten_bpchq_iv
						duration = -1
					}
				}	
			}				
			if = {
				limit = {
					4208 = {
						NOT = { owned_by = ROOT }
						owner = {
							culture_group = dwarven
						}
					}
				}
				4208 = {
					owner = {
						reverse_add_casus_belli = {
							target = ROOT
							type = cb_vassalize_mission
							months = 120
						}
					}
				}
			}
			else_if = {
				limit = {
					4208 = {
						NOT = { owned_by = ROOT }
						NOT = { is_core = ROOT }
						NOT = { is_permanent_claim = ROOT }
					}
				}
				4208 = {
					add_permanent_claim = ROOT
				}
			}
			else = {
				add_adm_power = 75
			}
		}
	}
	
	urviksten_eastern_anvils = {
		icon = mission_mountain_castle
		position = 11
		required_missions = { 
			urviksten_tvillingarna
			urviksten_fjarforska
		}

		provinces_to_highlight = {
			OR = {
				province_id = 4201
				province_id = 4198
			}
			OR = {
				NOT = { owned_by = ROOT }
				NOT = { province_has_current_tech_fort_trigger = yes }
			}
		}

		trigger = {
			4201 = {
				province_has_current_tech_fort_trigger = yes
				owned_by = ROOT
			}
			4198 = {
				province_has_current_tech_fort_trigger = yes
				owned_by = ROOT
			}
		}
		
		effect = {
			4201 = {
				add_province_modifier = {
					name = "urviksten_eastern_anvil_mod"
					duration = -1
				}
			}
			4198 = {
				add_province_modifier = {
					name = "urviksten_eastern_anvil_mod"
					duration = -1
				}
			}
			5001 = {
				add_permanent_claim = ROOT
			}
			5303 = {
				add_permanent_claim = ROOT
			}
		}
	}		
}

urviksten_missions5 = {
	slot = 5 
	generic = no
	ai = yes 
	has_country_shield = yes
	
	potential = {	
		OR = {
			tag = Z15
			AND = {
				tag = Z34
				was_tag =  Z15
			}
		}
	}
	
	urviksten_black_pines = {
		icon = mission_protect_white_sea_trade
		position = 2
		required_missions = { urviksten_assemble_the_men }
		
		provinces_to_highlight = {
			OR = {
				AND = {
					province_id = 983
					OR = {
						NOT = { base_production = 4 }
						NOT = { owned_by = ROOT }
					}
				}
				AND = {
					province_id = 981
					OR = {
						NOT = { base_production = 4 }
						NOT = { owned_by = ROOT }
					}
				}
			}
		}
		
		trigger = {
			983 = {
				base_production = 4
				owned_by = ROOT
			}
			981 = {
				base_production = 4
				owned_by = ROOT
			}
		}
		
		effect = {
			983 = {
				add_base_production = 1
				add_permanent_province_modifier = {
					name = "urviksten_black_pines"
					duration = -1
				}
			}
			981 = {
				add_base_production = 1
				add_permanent_province_modifier = {
					name = "urviksten_black_pines"
					duration = -1
				}
			}
		}
	}
	
	urviksten_onyx_fleet = {
		icon = mission_rb_scottish_north_sea_trade
		position = 3
		required_missions = { urviksten_black_pines }
		
		trigger = {
			navy_size = 25
		}
		
		effect = {
			add_country_modifier = {
				name = "urviksten_onyx_fleet"
				duration = 10950
			}
		}
	}
	
	urviksten_vrorenburg_arsenal = {
		icon = mission_early_game_buildings
		position = 4
		required_missions = { urviksten_onyx_fleet }
		
		provinces_to_highlight = {
			province_id = 740
			OR = { 
				NOT = { owned_by = ROOT }
				NOT = { is_core = ROOT }
				province_has_current_tech_fort_trigger = no
				has_shipyard_building_trigger = no
				has_dock_building_trigger = no
				has_coast_defense_building_trigger = no
			}
		}	

		trigger = {
			740 = {
				owned_by = ROOT
				has_province_modifier = castanorian_citadel
				province_has_current_tech_fort_trigger = yes
				has_shipyard_building_trigger = yes
				has_dock_building_trigger = yes
				has_coast_defense_building_trigger = yes
			}
		}
		
		effect = {
			740 = {
				add_province_modifier = {
					name = "urviksten_onyx_fleet_arsenal"
					duration = -1
				}
			}
			frostbridges_area = {
				add_permanent_claim = ROOT
			}
			bjarnland_area = {
				add_permanent_claim = ROOT
			}
			varheim_area = {
				add_permanent_claim = ROOT
			}
			revrland_area = {
				add_permanent_claim = ROOT
			}
			dalrfjall_area = {
				add_permanent_claim = ROOT
			}
		}
	}
	urviksten_no_safe_havns = {
		icon = Burn_Wooden_Wall
		position = 5
		required_missions = { urviksten_vrorenburg_arsenal }
		
		provinces_to_highlight = {
			OR = {
				area = dalrfjall_area
				area = revrland_area
				area = varheim_area
				area = bjarnland_area
				area = frostbridges_area
			}
			NOT = { owned_by = ROOT }
		}
		
		trigger = {
			bjarnland_area = {
				type = all
				owned_by = ROOT
			}
			revrland_area = {
				type = all
				owned_by = ROOT
			}
			varheim_area = {
				type = all
				owned_by = ROOT
			}
			dalrfjall_area = {
				type = all
				owned_by = ROOT
			}
			frostbridges_area = {
				type = all
				owned_by = ROOT
			}
		}
		
		effect = {
			olavlund_region = {
				add_permanent_claim = ROOT
			}
			gerudian_frontier_region = {
				add_permanent_claim = ROOT
			}
			dalr_region = {
				add_permanent_claim = ROOT
			}

		}
	}	

	urviksten_the_bears_den = {
		icon = mission_end_the_sound_toll
		position = 6
		required_missions = { urviksten_no_safe_havns }
		
		provinces_to_highlight = {
			OR = {
				region = olavlund_region
				region = dalr_region
				region = gerudian_frontier_region
			}
			NOT = { country_or_non_sovereign_subject_holds = ROOT }
		}
		
		trigger = {
			olavlund_region = {
				type = all
				country_or_non_sovereign_subject_holds = ROOT
			}
			gerudian_frontier_region = {
				type = all
				country_or_non_sovereign_subject_holds = ROOT
			}
			dalr_region = {
				type = all
				country_or_non_sovereign_subject_holds = ROOT
			}
		}
		
		effect = {
			add_dip_power = 100
			add_adm_power = 100
			add_mil_power = 100
			country_event = { id = flavor_urviksten.07 }
		}
	}

	urviksten_dalr_bpc = {
		icon = mission_develop_the_scandes
		position = 7
		required_missions = { urviksten_the_bears_den }
		
		provinces_to_highlight = {
			region = dalr_region
			has_terrain = forest
			OR = {
				has_production_or_gold_building_trigger = no
				NOT = { base_production = 5}
				NOT = { country_or_non_sovereign_subject_holds = ROOT }
			}
		}
		trigger = {
			num_of_provinces_owned_or_owned_by_non_sovereign_subjects_with = {
				value = 4
				region = dalr_region
				has_terrain = forest
				has_production_or_gold_building_trigger = yes
				base_production = 5
			}
			mission_completed = urviksten_found_bpc
		}
		effect = { 
			custom_tooltip = dalr_bpc_tooltip
			hidden_effect = {
				dalr_region = {
					limit = {
					has_terrain = forest
					owned_by = ROOT
					}
					add_permanent_province_modifier = {
					name = "urviksten_bpc_logging"
					duration = -1
					}
				}
			}
			978 = {
				if = { 
					limit = {
						has_province_modifier = urviksten_bpchq
					}
					remove_province_modifier = urviksten_bpchq
					add_permanent_province_modifier = {
						name = urviksten_bpchq_ii
						duration = -1
					}
				}
				else_if = {
					limit = {
						has_province_modifier = urviksten_bpchq_ii
					}
					remove_province_modifier = urviksten_bpchq_ii
					add_permanent_province_modifier = {
						name = urviksten_bpchq_iii
						duration = -1
					}
				}			
				else_if = {
					limit = {
						has_province_modifier = urviksten_bpchq_iii
					}
					remove_province_modifier = urviksten_bpchq_iii
					add_permanent_province_modifier = {
						name = urviksten_bpchq_iv
						duration = -1
					}
				}	
			}	
		}		
	}	
}	