
namespace = taychend_flavour

########################################## TAYCHEND FLAVOUR EVENTS ########################################################

# gain_taychend_glory_effect = { amount = 50 }
# lose_taychend_glory_effect = { amount = 50 }

############################################### GENERIC EVENTS #############################################################

country_event = { # local warlord rises
	id = taychend_flavour.1
	title = taychend_flavour.1.t
	desc = taychend_flavour.1.d
	picture = CONQUEST_eventPicture
	
	is_triggered_only = yes
	
	trigger = {
		religion = gods_of_the_taychend
		OR = {
			has_personal_deity = taychend_glory_1
			has_personal_deity = taychend_glory_2
		}
		num_of_cities = 2
	}

	option = { # warlord rises up
		name = taychend_flavour.1.a
		
		random_owned_province = {
			spawn_rebels = {
				type = pretender_rebels
				size = 2
			}
		}
		
		add_yearly_manpower = -0.4
	}
}

country_event = { # mercenaries revolt
	id = taychend_flavour.2
	title = taychend_flavour.2.t
	desc = taychend_flavour.2.d
	picture = CONQUEST_eventPicture
	
	is_triggered_only = yes

	trigger = {
		religion = gods_of_the_taychend
		OR = {
			has_personal_deity = taychend_glory_1
			has_personal_deity = taychend_glory_2
		}
		num_of_cities = 3
		num_of_mercenaries = 10 
		NOT = {
			estate_loyalty = {
				estate = estate_adventurers
				loyalty = 40
			}
		}
	}

	option = { # pay them off
		name = taychend_flavour.2.a
		
		add_years_of_income = -0.5
		
		random_hired_mercenary_company = {
			add_company_manpower = -0.25
		}
		random_hired_mercenary_company = {
		   add_company_manpower = -0.25
		}
		
		add_country_modifier = {
			name = tf_mercenaries_emboldened
			duration = 1825
		}
		
		capital_scope = { # spawns 2 rebel stacks in random neighbouring prov to capital		
			random_neighbor_province = {
				spawn_rebels = {
					type = pretender_rebels
					size = 1
				}
			}
			
			random_neighbor_province = {
				spawn_rebels = {
					type = pretender_rebels
					size = 1
				}
			}
		}
	}
	
	option = { # defeat them on the battlefield
		name = taychend_flavour.2.b
		
		random_hired_mercenary_company = {
			disband_mercenary_company = THIS
			add_company_manpower = -0.5
		}
		
		random_hired_mercenary_company = {
			add_company_manpower = -0.5
		}
		
		capital_scope = {
			random_neighbor_province = {
				spawn_rebels = {
					type = pretender_rebels
					size = 2
				}
			}
				
			random_neighbor_province = {
				spawn_rebels = {
					type = pretender_rebels
					size = 2
				}
			}
		}
	}
	
	option = { # convince them to stand down
		name = taychend_flavour.2.c
		trigger = {
			OR = {
				ruler_has_personality = fierce_negotiator_personality
				ruler_has_personality = charismatic_negotiator_personality
				ruler_has_personality = silver_tongue_personality
				dip = 5
			}
		}
		highlight = yes
	}
}

country_event = { # cult of vherenar instigates slaves
	id = taychend_flavour.3
	title = taychend_flavour.3.t
	desc = taychend_flavour.3.d
	picture = CONQUEST_eventPicture
	
	is_triggered_only = yes

	trigger = {
		OR = {
			religion = gods_of_the_taychend
			religion = gods_of_the_taychend_reformed
		}
		NOT = {
			is_religion_enabled = oren_nayiru
		}
		any_owned_province = {
			OR = {
				trade_goods = slaves
				trade_goods = iron
				trade_goods = copper
				development = 15
			}
		}
	}

	immediate = {
		random_owned_province = {
			limit = {
				OR = {
					trade_goods = slaves
					trade_goods = iron
					trade_goods = copper
					development = 15
				}
			}
			save_event_target_as = tf_vherenar_slave_unrest
		}
	}

	option = { # hunt them down
		name = taychend_flavour.3.a
		
		event_target:tf_vherenar_slave_unrest = {
			add_devastation = 40
			add_province_modifier = {
				name = tf_slaves_scoured
				duration = 1825
			}
		}
	}
	
	option = { # let them be
		name = taychend_flavour.3.b
		
		event_target:tf_vherenar_slave_unrest = {
			add_province_modifier = {
				name = tf_cult_of_vherenar_cell
				duration = 5475
			}
		}
	}
	
	option = { # infiltrate and destroy them
		name = taychend_flavour.3.c
		
		trigger = {
			OR = {
				ruler_has_personality = intricate_web_weaver_personality
				ruler_has_personality = careful_personality
				ruler_has_personality = secretive_personality
				spymaster = 1
			}
		}
		
		highlight = yes
		add_prestige = 10
		gain_taychend_glory_effect = { amount = 20 }
		
	}
}

country_event = { # cult of vherenar instigates revolts
	id = taychend_flavour.4
	title = taychend_flavour.4.t
	desc = taychend_flavour.4.d
	picture = CONQUEST_eventPicture
	
	is_triggered_only = yes
	
	trigger = {
		OR = {
			religion = gods_of_the_taychend
			religion = gods_of_the_taychend_reformed
		}
		NOT = {
			is_religion_enabled = oren_nayiru
		}
		any_owned_province = {
			OR = {
				trade_goods = slaves
				trade_goods = iron
				trade_goods = copper
				development = 15
			}
		}
	}
	
	immediate = {
		random_owned_province = {
			limit = {
				OR = {
					trade_goods = slaves
					trade_goods = iron
					trade_goods = copper
					development = 15
				}
			}
			save_event_target_as = tf_vherenar_slave_unrest
		}
		
		random_owned_province = {
			limit = {
				OR = {
					trade_goods = slaves
					trade_goods = iron
					trade_goods = copper
					development = 15
				}
				NOT = { province_id = event_target:tf_vherenar_slave_unrest }
			}
			save_event_target_as = tf_vherenar_slave_unrest2
		}
		
		random_owned_province = {
			limit = {
				OR = {
					trade_goods = slaves
					trade_goods = iron
					trade_goods = copper
					development = 15
				}
				
				NOT = { province_id = event_target:tf_vherenar_slave_unrest }
				NOT = { province_id = event_target:tf_vherenar_slave_unrest2 }
			}
			save_event_target_as = tf_vherenar_slave_unrest3
		}
	}

	option = { # fight them
		name = taychend_flavour.4.a
		
		event_target:tf_vherenar_slave_unrest = {
			add_devastation = 15
			spawn_rebels = {
				type = anti_tax_rebels
				size = 2
			}
		}
		
		if = {
			limit = { has_saved_event_target = tf_vherenar_slave_unrest2}
			event_target:tf_vherenar_slave_unrest2 = {
				add_devastation = 15
				spawn_rebels = {
					type = anti_tax_rebels
					size = 2
				}
			}
		}
		
		if = {
			limit = { has_saved_event_target = tf_vherenar_slave_unrest3}
			event_target:tf_vherenar_slave_unrest3 = {
				add_devastation = 15
				spawn_rebels = {
					type = anti_tax_rebels
					size = 2
				}
			}
		}
	}
	
	option = { # institute harsh reprisals
		name = taychend_flavour.4.b
		
		event_target:tf_vherenar_slave_unrest = {
			spawn_rebels = {
				type = anti_tax_rebels
				size = 2
			}
		}
		
		add_stability = -1
		add_army_tradition = 10
	}
}

country_event = { # cult of vherenar ambushes caravan
	id = taychend_flavour.5
	title = taychend_flavour.5.t
	desc = taychend_flavour.5.d
	picture = CONQUEST_eventPicture
	
	is_triggered_only = yes

	trigger = {
		OR = {
			religion = gods_of_the_taychend
			religion = gods_of_the_taychend_reformed
		}
		NOT = {
			is_religion_enabled = oren_nayiru
		}
		capital_scope = {
			NOT = {
				region = gauraddhi_region 
			}
		}
	}

	option = { # tough luck
		name = taychend_flavour.5.a
		
		add_years_of_income = -0.66
		
		add_estate_loyalty = {
			estate = estate_nobles
			loyalty = 10
		}
		
		add_estate_influence_modifier = {
			estate = estate_burghers
			desc = EST_VAL_TF_AMBUSHED_CARAVAN
			influence = 10
			duration = 3650
		}
	}
	
	option = { # convince the merchants you can't do anything
		name = taychend_flavour.5.b
		trigger = {
			OR = {
				dip = 4
				ruler_has_personality = charismatic_negotiator_personality
				ruler_has_personality = silver_tongue_personality
			}
		}
		
		highlight = yes
		add_years_of_income = -0.33
	}
}

country_event = { # vassal warlord conspires to steal land
	id = taychend_flavour.6
	title = taychend_flavour.6.t
	desc = taychend_flavour.6.d
	picture = CONQUEST_eventPicture
	
	is_triggered_only = yes
	
	trigger = {
		religion = gods_of_the_taychend
		any_subject_country = {
			liberty_desire = 40
		}
		num_of_cities = 10
		OR = {
			has_personal_deity = taychend_glory_1
			has_personal_deity = taychend_glory_2
			has_personal_deity = taychend_glory_3
		}
	}
	
	immediate = {
		random_subject_country = {
			limit = {
				liberty_desire = 40
			}
			save_event_target_as = tf_conspiring_disloyal_vassal
		}
		
		random_owned_province = {
			limit = {
				is_neighbor_of = event_target:tf_conspiring_disloyal_vassal
				NOT = {
					development = 20
					is_capital = yes
				}
			}
			save_event_target_as = tf_disloyalvassalprov_1
		}
		
		random_owned_province = {
			limit = {
				is_neighbor_of = event_target:tf_conspiring_disloyal_vassal
				NOT = {
					development = 20
					is_capital = yes
					province_id = event_target:tf_disloyalvassalprov_1
				}
			}
			save_event_target_as = tf_disloyalvassalprov_2
		}
		
		random_owned_province = {
			limit = {
				is_neighbor_of = event_target:tf_conspiring_disloyal_vassal
				NOT = {
					development = 20
					is_capital = yes
					province_id = event_target:tf_disloyalvassalprov_1
					province_id = event_target:tf_disloyalvassalprov_2
				}
			}
			save_event_target_as = tf_disloyalvassalprov_3
		}
	}

	option = { # cede provinces to vassal
		name = taychend_flavour.6.a
		
		add_prestige = -10
		add_legitimacy = -10
		
		event_target:tf_conspiring_disloyal_vassal = {
			event_target:tf_disloyalvassalprov_1 = {
				cede_province = PREV
			}
			event_target:tf_disloyalvassalprov_2 = {
				cede_province = PREV
			}
			event_target:tf_disloyalvassalprov_3 = {
				cede_province = PREV
			}
		}
	}
	
	option = { # prevent the conquest
		name = taychend_flavour.6.b
		
		add_legitimacy = 10
		gain_taychend_glory_effect = { amount = 25 }
		
		add_opinion = {
			who = event_target:tf_conspiring_disloyal_vassal
			modifier = tf_stopped_vassal_conspiracy
		}
		
		if = {
			limit = {
				event_target:tf_conspiring_disloyal_vassal = {
					liberty_desire = 75
				}
			}
			
			declare_war_with_cb = {
				who = ROOT
				casus_belli = cb_independence_war
			}
		}
		
		else = {
			event_target:tf_conspiring_disloyal_vassal = {
				add_liberty_desire = 15
			}
		}	
	}
}

country_event = { # bounty of the kalavend
	id = taychend_flavour.7
	title = taychend_flavour.7.t
	desc = taychend_flavour.7.d
	picture = CONQUEST_eventPicture
	
	is_triggered_only = yes

	trigger = {
		capital_scope = {
			OR = {
				superregion = taychend_superregion
				region = andic_reach_region # for ameion
				region = dry_coast_region # for rez
			}
		}
		num_of_owned_provinces_with = {
			value = 10
			region = kalavend_region
		}
	}
	
	immediate = {
		random_owned_province = {
			limit = {
				region = kalavend_region
			}
			save_event_target_as = tf_kflood1
		}
		
		random_owned_province = {
			limit = {
				region = kalavend_region
				NOT = {
					province_id = event_target:tf_kflood1
				}
			}
			save_event_target_as = tf_kflood2
		}
		
		random_owned_province = {
			limit = {
				region = kalavend_region
				NOT = {
					province_id = event_target:tf_kflood1
					province_id = event_target:tf_kflood2
				}
			}
			save_event_target_as = tf_kflood3
		}
		
		random_owned_province = {
			limit = {
				region = kalavend_region
				NOT = {
					province_id = event_target:tf_kflood1
					province_id = event_target:tf_kflood2
					province_id = event_target:tf_kflood3
				}
			}
			save_event_target_as = tf_kflood4
		}
		
		random_owned_province = {
			limit = {
				region = kalavend_region
				NOT = {
					province_id = event_target:tf_kflood1
					province_id = event_target:tf_kflood2
					province_id = event_target:tf_kflood3
					province_id = event_target:tf_kflood4
				}
			}
			save_event_target_as = tf_kflood5
		}
		
		random_owned_province = {
			limit = {
				region = kalavend_region
				NOT = {
					province_id = event_target:tf_kflood1
					province_id = event_target:tf_kflood2
					province_id = event_target:tf_kflood3
					province_id = event_target:tf_kflood4
					province_id = event_target:tf_kflood5
				}
			}
			save_event_target_as = tf_kflood6
		}
		
		random_owned_province = {
			limit = {
				region = kalavend_region
				NOT = {
					province_id = event_target:tf_kflood1
					province_id = event_target:tf_kflood2
					province_id = event_target:tf_kflood3
					province_id = event_target:tf_kflood4
					province_id = event_target:tf_kflood5
					province_id = event_target:tf_kflood6
				}
			}
			save_event_target_as = tf_kflood7
		}
		
		random_owned_province = {
			limit = {
				region = kalavend_region
				NOT = {
					province_id = event_target:tf_kflood1
					province_id = event_target:tf_kflood2
					province_id = event_target:tf_kflood3
					province_id = event_target:tf_kflood4
					province_id = event_target:tf_kflood5
					province_id = event_target:tf_kflood6
					province_id = event_target:tf_kflood7
				}
			}
			save_event_target_as = tf_kflood8
		}
		
	}

	option = { # river floods
		name = taychend_flavour.7.a
		custom_tooltip = tf_river_floods_tt
		hidden_effect = {	
			event_target:tf_kflood1 = {
				add_devastation = 10
			}
			event_target:tf_kflood2 = {
				add_devastation = 10
			}
			event_target:tf_kflood3 = {
				add_devastation = 10
			}
			event_target:tf_kflood4 = {
				add_devastation = 10
			}
			event_target:tf_kflood5 = {
				add_devastation = 10
			}
			event_target:tf_kflood6 = {
				add_devastation = 10
			}
			event_target:tf_kflood7 = {
				add_devastation = 10
			}
			event_target:tf_kflood8 = {
				add_devastation = 10
			}
			every_owned_province = {
				limit = {
					region = kalavend_region
				}
				add_province_modifier = {
					name = tf_bountiful_kalavend_river
					duration = 1825
				}
			}
		}
	}
}

country_event = { # warlords flock to RULER's banner
	id = taychend_flavour.8
	title = taychend_flavour.8.t
	desc = taychend_flavour.8.d
	picture = CONQUEST_eventPicture
	
	is_triggered_only = yes
	
	trigger = {
		religion = gods_of_the_taychend
		OR = {
			has_personal_deity = taychend_glory_1
			has_personal_deity = taychend_glory_2
		}
	}

	option = { # take those with reknown
		name = taychend_flavour.8.a
		
		add_manpower = 5
		
	}
	
	option = { # take all of them
		name = taychend_flavour.8.b
		
		add_manpower = 10
		add_corruption = 0.05
		add_prestige = -10
	}
	
	option = { # you're awesome and get bonuses
		name = taychend_flavour.8.c
		
		trigger = {
			OR = {
				has_personal_deity = taychend_glory_5
				prestige = 50
				ruler_has_personality = righteous_personality
				ruler_has_personality = kind_hearted_personality
				ruler_has_personality = just_personality
			}
		}
		
		highlight = yes
		add_manpower = 10
	}
}

country_event = { # beggar, soldier, warlord
	id = taychend_flavour.9
	title = taychend_flavour.9.t
	desc = taychend_flavour.9.d
	picture = CONQUEST_eventPicture
	
	is_triggered_only = yes

	trigger = {
		OR = {
			religion = gods_of_the_taychend
			religion = gods_of_the_taychend_reformed
		}
	}

	option = { # give him a command
		name = taychend_flavour.9.a
		
		create_general = { tradition = 50 }
		add_legitimacy = -10
	}
}

country_event = { # the law code of RULER
	id = taychend_flavour.10
	title = taychend_flavour.10.t
	desc = taychend_flavour.10.d
	picture = CONQUEST_eventPicture
	
	is_triggered_only = yes

	trigger = {
		OR = {
			religion = gods_of_the_taychend
			religion = gods_of_the_taychend_reformed
		}
		adm = 3
		NOT = {
			has_ruler_flag = tf_law_code_promulgated
		}
		
		OR = {
			# strict law code reqs
			ruler_has_personality = strict_personality
			ruler_has_personality = righteous_personality
			ruler_has_personality = lawgiver_personality
			mil = 5
			estate_influence = {
				estate = estate_nobles
				influence = 45
			}
			
			# reformist law code reqs
			ruler_has_personality = reformist_personality
			ruler_has_personality = scholar_personality
			ruler_has_personality = free_thinker_personality
			adm = 5
			estate_influence = {
				estate = estate_church
				influence = 45
			}
			
			# enriching law code reqs
			ruler_has_personality = well_connected_personality
			ruler_has_personality = entrepreneur_personality
			ruler_has_personality = industrious_personality
			dip = 5
			estate_influence = {
				estate = estate_burghers
				influence = 45
			}
		}
	}

	option = { # strict law code
		name = taychend_flavour.10.a
		
		trigger = {
			OR = {
				ruler_has_personality = strict_personality
				ruler_has_personality = righteous_personality
				ruler_has_personality = lawgiver_personality
				mil = 5
				estate_influence = {
					estate = estate_nobles
					influence = 45
				}
			}
		}
		
		highlight = yes
		add_stability = -1
		gain_taychend_glory_effect = { amount = 50 }
		add_ruler_modifier = { 
			name = tf_strict_law_code
			duration = -1  
		}
	}
	
	option = { # reformist law code
		name = taychend_flavour.10.b
	
		trigger = {
			OR = {
				ruler_has_personality = reformist_personality
				ruler_has_personality = scholar_personality
				ruler_has_personality = free_thinker_personality
				adm = 5
				estate_influence = {
					estate = estate_church
					influence = 45
				}
			}
		}
		
		highlight = yes
		add_stability = -1
		gain_taychend_glory_effect = { amount = 50 }
		add_ruler_modifier = { 
			name = tf_reformist_law_code
			duration = -1  
		}
	}
	
	option = { # enriching law code
		name = taychend_flavour.10.c
		
		trigger = {
			OR = {
				ruler_has_personality = well_connected_personality
				ruler_has_personality = entrepreneur_personality
				ruler_has_personality = industrious_personality
				dip = 5
				estate_influence = {
					estate = estate_burghers
					influence = 45
				}
			}
		}
		
		highlight = yes
		add_stability = -1
		gain_taychend_glory_effect = { amount = 50 }
		add_ruler_modifier = { 
			name = tf_enriching_law_code
			duration = -1  
		}
	}
}

country_event = { # A little liquid glory
	id = taychend_flavour.11
	title = taychend_flavour.11.t
	desc = taychend_flavour.11.d
	picture = CONQUEST_eventPicture
	
	is_triggered_only = yes

	trigger = {
		culture_group = taychendi_ruinborn_elf
		any_owned_province = {
			trade_goods = tea
			NOT = {
				province_id = 2481 # ahartadyam
				province_id = 2556 # marhed rayodana
			}
		}
	}
	
	option = { # import more kheionai wine
		name = taychend_flavour.11.a
		
		add_country_modifier = {
			name = tf_importing_kheionai_wine
			duration = 9125
		}
	}
	
	option = { # replace tea plantations with vineyards
		name = taychend_flavour.11.b
		
		random_owned_province = {
			limit = {
				trade_goods = tea
				NOT = {
					province_id = 2481
					province_id = 2556
				}
			}
			change_trade_goods = wine
			add_province_modifier = {
				name = tf_cultivating_taychendi_vineyards
				duration = 9125
			}
			set_province_flag = tfflag_taychendi_wine_1
		}
		
		random_owned_province = {
			limit = {
				trade_goods = tea
				NOT = {
					province_id = 2481
					province_id = 2556
					has_province_flag = tfflag_taychendi_wine_1
				}
			}
			change_trade_goods = wine
			add_province_modifier = {
				name = tf_cultivating_taychendi_vineyards
				duration = 9125
			}
			set_province_flag = tfflag_taychendi_wine_2
		}
		
		country_event = { 
			id = taychend_flavour.110
			days = 9125
		}
	}
	
	option = { # sponsor traditional drinks
		name = taychend_flavour.11.c
		
		add_country_modifier = {
			name = tf_sponsoring_traditional_alcohol
			duration = 9125
		}
	}
}

country_event = { # replacing native vineyard modifier
	id = taychend_flavour.110
	title = taychend_flavour.110.t
	desc = taychend_flavour.110.d
	picture = CONQUEST_eventPicture
	
	is_triggered_only = yes

	option = { # add new modifier in place of the old one
		name = taychend_flavour.110.a
		
		random_owned_province = {
			limit = { has_province_flag = tfflag_taychendi_wine_1 }
			add_province_modifier = {
				name = tf_native_taychendi_vineyards
				duration = -1
			}
		}
		
		random_owned_province = {
			limit = { has_province_flag = tfflag_taychendi_wine_2 }
			add_province_modifier = {
				name = tf_native_taychendi_vineyards
				duration = -1
			}
		}
	}
}

country_event = { # peasants move into devastated areas
	id = taychend_flavour.12
	title = taychend_flavour.12.t
	desc = taychend_flavour.12.d
	picture = CONQUEST_eventPicture
	
	is_triggered_only = yes

	trigger = {
		OR = {
			religion = gods_of_the_taychend
			religion = gods_of_the_taychend_reformed
		}
		num_of_owned_provinces_with = {
			value = 3
			superregion = taychend_superregion
			base_manpower = 3
			NOT = { devastation = 0 }
		}
		OR = {
			num_of_owned_provinces_with = {
				value = 3
				superregion = taychend_superregion
				devastation = 25
			}
			war_exhaustion = 5
		}
	}

	option = { # peasants move
		name = taychend_flavour.12.a

		random_owned_province = {
			limit = {
				base_manpower = 3
				superregion = taychend_superregion
				NOT = { devastation = 0 }
			}
			add_base_manpower = -1
		}
		
		random_owned_province = {
			limit = {
				base_manpower = 3
				superregion = taychend_superregion
				NOT = { devastation = 0 }
			}
			add_base_manpower = -1
		}
		
		random_owned_province = {
			limit = {
				base_manpower = 3
				superregion = taychend_superregion
				NOT = { devastation = 0 }
			}
			add_base_manpower = -1
		}
		
		random_owned_province = {
			limit = {
				superregion = taychend_superregion
				devastation = 25
			}
			add_base_manpower = 1
			add_province_modifier = {
				name = tf_recent_peasant_migrations
				duration = 3650
			}
		}
		
		random_owned_province = {
			limit = {
				superregion = taychend_superregion
				devastation = 25
				NOT = { has_province_modifier = tf_recent_peasant_migrations }
			}
			add_base_manpower = 1
			add_province_modifier = {
				name = tf_recent_peasant_migrations
				duration = 3650
			}
		}
		
		random_owned_province = {
			limit = {
				superregion = taychend_superregion
				devastation = 25
				NOT = { has_province_modifier = tf_recent_peasant_migrations }
			}
			add_base_manpower = 1
			add_province_modifier = {
				name = tf_recent_peasant_migrations
				duration = 3650
			}
		}
		
	}
}

#################################################### slave warren expedition events ########################################

country_event = { # old slave warrens uncovered
	id = taychend_flavour.13
	title = taychend_flavour.13.t
	desc = taychend_flavour.13.d
	picture = CONQUEST_eventPicture
	
	is_triggered_only = yes
	
	trigger = {
		capital_scope = {
			superregion = taychend_superregion
		}
		any_owned_province = {
			NOT = {
				trade_goods = precursor_relics
				has_terrain = city_terrain 
			}
		}
		NOT = { has_saved_global_event_target = tf_slave_warren_target }
	}
	
	immediate = {
		random_owned_province = {
			limit = {
				NOT = {
					trade_goods = precursor_relics
					has_terrain = city_terrain 
				}
			}
			
			save_global_event_target_as = tf_slave_warren_target
		}
	}

	option = { # send a normal expedition
		name = taychend_flavour.13.a
		
		add_manpower = -3
		add_treasury = -50
		add_estate_influence_modifier = {
			estate = estate_adventurers
			desc = EST_VAL_WARREN_EXPEDITION
			influence = 10
			duration = 3650
		}
		
		random_list = {
			30 = {
				country_event = { 
					id = taychend_flavour.16 # finds results
					days = 180
				}
			}
			
			40 = {
				country_event = { 
					id = taychend_flavour.15 # finds nothing
					days = 180
				}
			}
			
			25 = {
				country_event = { 
					id = taychend_flavour.14 # expedition destroyed
					days = 180
				}
			}
			
			5 = {
				country_event = { 
					id = taychend_flavour.17 # massive ruin
					days = 180
				}
			}
		}
		
	}
	
	option = { # send a heavily armed expedition
		name = taychend_flavour.13.b
		
		add_manpower = -3
		add_mil_power = -75
		add_treasury = -75
		add_estate_influence_modifier = {
			estate = estate_adventurers
			desc = EST_VAL_WARREN_EXPEDITION
			influence = 10
			duration = 3650
		}
		
		random_list = {
			45 = {
				country_event = { 
					id = taychend_flavour.16 # finds results
					days = 180
				}
			}
			
			45 = {
				country_event = { 
					id = taychend_flavour.15 # finds nothing
					days = 180
				}
			}
			
			5 = {
				country_event = { 
					id = taychend_flavour.14 # expedition destroyed
					days = 180
				}
			}
			
			5 = {
				country_event = { 
					id = taychend_flavour.17 # massive ruin
					days = 180
				}
			}
		}
	}
	
	option = { # explore the warrens with kotakompu
		name = taychend_flavour.13.c
		
		trigger = {
			OR = {
				tag = J78
				tag = G77
				
				J78 = { is_subject_of = ROOT }
				G77 = { is_subject_of = ROOT }
				
				2502 = {
					owned_by = ROOT
					is_core = ROOT
					NOT = { local_autonomy = 15 }
				}
				
				2556 = {
					owned_by = ROOT
					is_core = ROOT
					NOT = { local_autonomy = 15 }
				}
			}
		}
		
		highlight = yes
		add_manpower = -3
		add_treasury = -25
		
		random_list = {
			35 = {
				country_event = { 
					id = taychend_flavour.16 # finds results
					days = 180
				}
			}
			
			30 = {
				country_event = { 
					id = taychend_flavour.15 # finds nothing
					days = 180
				}
			}
			
			20 = {
				country_event = { 
					id = taychend_flavour.14 # expedition destroyed
					days = 180
				}
			}
			
			15 = {
				country_event = { 
					id = taychend_flavour.17 # massive ruin
					days = 180
				}
			}
		}
	}
	
	option = { # don't bother
		name = taychend_flavour.13.the
		
		add_prestige = -5
		add_estate_loyalty = {
			estate = estate_adventurers
			loyalty = -5
		}
		clear_global_event_target = tf_slave_warren_target
	}
}

country_event = { # warren expedition destroyed
	id = taychend_flavour.14
	title = taychend_flavour.14.t
	desc = taychend_flavour.14.d
	picture = CONQUEST_eventPicture
	
	is_triggered_only = yes

	option = { # mount another normal expedition
		name = taychend_flavour.14.a
		
		add_manpower = -3
		add_treasury = -50
		
		random_list = {
			30 = {
				country_event = { 
					id = taychend_flavour.16 # finds results
					days = 180
				}
			}
			
			65 = {
				country_event = { 
					id = taychend_flavour.15 # finds nothing
					days = 180
				}
			}
						
			5 = {
				country_event = { 
					id = taychend_flavour.17 # massive ruin
					days = 180
				}
			}
		}
	}
	
	option = { # mount another heavily armed expedition
		name = taychend_flavour.14.b
		
		add_manpower = -3
		add_mil_power = -75
		add_treasury = -75
		
		random_list = {
			45 = {
				country_event = { 
					id = taychend_flavour.16 # finds results
					days = 180
				}
			}
			
			50 = {
				country_event = { 
					id = taychend_flavour.15 # finds nothing
					days = 180
				}
			}
			
			5 = {
				country_event = { 
					id = taychend_flavour.17 # massive ruin
					days = 180
				}
			}
		}
	}
	
	option = { # mount another kotakompu expedition
		name = taychend_flavour.14.c
		
		trigger = {
			OR = {
				tag = J78
				tag = G77
				
				J78 = { is_subject = yes }
				G77 = { is_subject = yes }
				
				2502 = {
					owned_by = ROOT
					is_core = ROOT
					NOT = { local_autonomy = 15 }
				}
				
				2556 = {
					owned_by = ROOT
					is_core = ROOT
					NOT = { local_autonomy = 15 }
				}
			}
		}
		
		highlight = yes
		add_manpower = -3
		add_treasury = -25
		
		random_list = {
			35 = {
				country_event = { 
					id = taychend_flavour.16 # finds results
					days = 180
				}
			}
			
			50 = {
				country_event = { 
					id = taychend_flavour.15 # finds nothing
					days = 180
				}
			}
			
			15 = {
				country_event = { 
					id = taychend_flavour.17 # massive ruin
					days = 180
				}
			}
		}
	}
	
	option = { # forget it (estate hates this extra)
		name = taychend_flavour.14.the
		
		add_prestige = -10
		add_estate_loyalty = {
			estate = estate_adventurers
			loyalty = -10
		}
		lose_taychend_glory_effect = { amount = 10 }
		clear_global_event_target = tf_slave_warren_target
	}
}

country_event = { # warren expedition finds nothing
	id = taychend_flavour.15
	title = taychend_flavour.15.t
	desc = taychend_flavour.15.d
	picture = CONQUEST_eventPicture
	
	is_triggered_only = yes

	option = {
		name = taychend_flavour.15.a
		add_estate_loyalty = {
			estate = estate_adventurers
			loyalty = -5
		}
		add_manpower = 3
		add_prestige = -5
		clear_global_event_target = tf_slave_warren_target
	}
}

country_event = { # warren expedition yields results
	id = taychend_flavour.16
	title = taychend_flavour.16.t
	desc = taychend_flavour.16.d
	picture = CONQUEST_eventPicture
	
	is_triggered_only = yes

	option = {
		name = taychend_flavour.16.a
		add_estate_loyalty = {
			estate = estate_adventurers
			loyalty = 10
		}
		add_manpower = 3
		add_treasury = 150
		event_target:tf_slave_warren_target = {
			add_province_modifier = {
				name = tf_slave_warren_ruins_mod
				duration = 9125
			}
		}
		random_list = {
			5 = {
				country_event = {
					id = taychend_flavour.18
					days = 0
				}
			}
			95 = { }
		}
	}
}

country_event = { # warren expedition finds massive ruin
	id = taychend_flavour.17
	title = taychend_flavour.17.t
	desc = taychend_flavour.17.d
	picture = CONQUEST_eventPicture
	
	is_triggered_only = yes

	option = {
		name = taychend_flavour.17.a
		
		add_manpower = 3
		add_treasury = 300
		add_estate_loyalty = {
			estate = estate_adventurers
			loyalty = 20
		}
		
		event_target:tf_slave_warren_target = {
			add_province_modifier = {
				name = tf_slave_warren_excavation_mod
				duration = 3650
			}
			save_trade_goods = yes
			change_trade_goods = precursor_relics
		}
		
		random_list = {
			20 = {
				country_event = {
					id = taychend_flavour.18
					days = 0
				}
			}
			80 = { }
		}
	}
}

country_event = { # warren expedition complete
	id = taychend_flavour.170
	title = taychend_flavour.170.t
	desc = taychend_flavour.170.d
	picture = CONQUEST_eventPicture
	
	is_triggered_only = yes

	option = { # replace precursor trade goods
		name = taychend_flavour.170.a
		
		event_target:tf_slave_warren_target = {
			set_from_saved_trade_goods = yes
		}
	}	
}

######################################################## Relic Lord Events #######################################################

country_event = { # powerful relic found
	id = taychend_flavour.18
	title = taychend_flavour.18.t
	desc = taychend_flavour.18.d
	picture = CONQUEST_eventPicture
	
	is_triggered_only = yes
	
	trigger = {
		OR = {
			religion = gods_of_the_taychend
			religion = gods_of_the_taychend_reformed
		}
		NOT = {
			has_country_modifier = tf_event_relic_lord_ruler
			has_country_modifier = tf_event_relic_lord_subordinate
			ruler_has_personality = immortal_personality
		}
	}

	option = { # wield it yourself
		name = taychend_flavour.18.a
		
		trigger = {
			ruler_has_personality = mage_personality
		}
		
		highlight = yes
		gain_taychend_glory_effect = { amount = 50 }
		add_ruler_modifier = {
			name = tf_event_relic_lord_ruler
			duration = -1
		}
	}
	
	option = { # give it to a subordinate
		name = taychend_flavour.18.b
		
		add_prestige = -10
		add_country_modifier = {
			name = tf_event_relic_lord_subordinate
			duration = 7300
		}
	}
	
	option = { # put it on display
		name = taychend_flavour.18.c
		
		add_legitimacy = 10
		gain_taychend_glory_effect = { amount = 50 }
	}
}

country_event = { # relic lord rises
	id = taychend_flavour.19
	title = taychend_flavour.19.t
	desc = taychend_flavour.19.d
	picture = CONQUEST_eventPicture
	
	is_triggered_only = yes

	trigger = {
		OR = {
			religion = gods_of_the_taychend
			religion = gods_of_the_taychend_reformed
		}
		NOT = {
			estate_loyalty = {
				estate = estate_mages
				loyalty = 40
			}
		}
		
		has_country_modifier = tf_event_relic_lord_subordinate
	}

	option = { # fight the pretender
		name = taychend_flavour.19.a
		
		random_owned_province = {
			spawn_rebels = {
				type = pretender_rebels
				size = 3
				should_take_capital = yes
			}
		}
		
		remove_country_modifier = tf_event_relic_lord_subordinate
		
		add_stability = 1
	}
	
	option = { # give up
		name = taychend_flavour.19.b
		
		define_ruler = {
			culture = ROOT
			religion = ROOT
			max_random_adm = 3
			max_random_dip = 3
			max_random_mil = 3
			max_age = 40
			claim = 50
		}
		
		kill_heir = { } # I think this is right? Following wiki
		add_stability = -2
		add_ruler_personality = mage_personality
		
		add_ruler_modifier = {
			name = tf_event_relic_lord_ruler
			duration = -1
		}
	}
}

country_event = { # assassination attempt on relic lord
	id = taychend_flavour.20
	title = taychend_flavour.20.t
	desc = taychend_flavour.20.d
	picture = CONQUEST_eventPicture
	
	is_triggered_only = yes

	trigger =  {
		OR = {
			religion = gods_of_the_taychend
			religion = gods_of_the_taychend_reformed
		}
		has_ruler_modifier = tf_event_relic_lord_ruler
	}

	option = {
		name = taychend_flavour.20.a
		random_list = {
			30 = { kill_ruler = yes }
			70 = { }
		}
	}
}

######################################################## Dey Vettaga Events ###########################################################

country_event = { # a ghost in the hills
	id = taychend_flavour.21
	title = taychend_flavour.21.t
	desc = taychend_flavour.21.d
	picture = CONQUEST_eventPicture
	
	is_triggered_only = yes
	
	trigger = {
		capital_scope = {
			superregion = taychend_superregion
		}
		any_owned_province = {
			has_terrain = hills
			OR = {
				region = yodhanchend_region
				region = kalavend_region
			}
			NOT = {
				province_id = 2527 # kannalulthe
			}
		}
	}
	
	immediate = {
		random_owned_province = {
			limit = {
				has_terrain = hills
				OR = {
					region = yodhanchend_region
					region = kalavend_region
				}
				NOT = {
					province_id = 2527 # kannalulthe
				}
			}
			save_global_event_target_as = tf_dey_vettaga_prov
		}
	}

	option = { # hunt the beast personally
		name = taychend_flavour.21.a
		
		random_list = {
			33 = {
				country_event = { 
					id = taychend_flavour.23 # gets away
					days = 90
				}
			}
			
			33 = {
				country_event = { 
					id = taychend_flavour.22 # kills ruler
					days = 90
				}
			}
			
			33 = {
				country_event = { 
					id = taychend_flavour.25 # ruler kills it
					days = 90
				}				
				modifier = {
					factor = 2
					OR = {
						ruler_has_personality = bold_fighter_personality
						ruler_has_personality = careful_personality
						ruler_has_personality = calm_personality
						mil = 5
						tag = J80
					}
				}
			}
		}
	}
	
	option = { # send soldiers into the hills
		name = taychend_flavour.21.b
		random_list = {
			50 = {
				country_event = { 
					id = taychend_flavour.23 # it gets away
					days = 180
				}
			}
			
			50 = {
				country_event = { 
					id = taychend_flavour.24 # troops kill it
					days = 180
				}
			}
		}
	}
	
	option = { # let it be
		name = taychend_flavour.21.c
		
		add_prestige = -10
		add_legitimacy = -10
		
		event_target:tf_dey_vettaga_prov = {
			add_province_modifier = {
				name = tf_ghost_in_the_hills
				duration = 5475
			}
		}
		
		clear_global_event_target = tf_dey_vettaga_prov
	}
}

country_event = { # dey vettaga kills our ruler
	id = taychend_flavour.22
	title = taychend_flavour.22.t
	desc = taychend_flavour.22.d
	picture = CONQUEST_eventPicture
	
	is_triggered_only = yes

	option = {
		name = taychend_flavour.22.a
		
		kill_ruler = yes
		add_prestige = -10
		
		event_target:tf_dey_vettaga_prov = {
			add_province_modifier = {
				name = tf_ghost_in_the_hills
				duration = 5475
			}
		}
		
		clear_global_event_target = tf_dey_vettaga_prov
	}
}

country_event = { # dey vettaga gets away
	id = taychend_flavour.23
	title = taychend_flavour.23.t
	desc = taychend_flavour.23.d
	picture = CONQUEST_eventPicture
	
	is_triggered_only = yes

	option = {
		name = taychend_flavour.23.a
		
		add_prestige = -10
		
		event_target:tf_dey_vettaga_prov = {
			add_province_modifier = {
				name = tf_ghost_in_the_hills
				duration = 5475
			}
		}
		
		clear_global_event_target = tf_dey_vettaga_prov
	}
}

country_event = { # dey vettaga slain by our troops
	id = taychend_flavour.24
	title = taychend_flavour.24.t
	desc = taychend_flavour.24.d
	picture = CONQUEST_eventPicture
	
	is_triggered_only = yes

	option = {
		name = taychend_flavour.24.a
		
		add_army_tradition = 5
		add_manpower = -1
		
		clear_global_event_target = tf_dey_vettaga_prov
	}
}

country_event = { # dey vettaga slain by our ruler
	id = taychend_flavour.25
	title = taychend_flavour.25.t
	desc = taychend_flavour.25.d
	picture = CONQUEST_eventPicture
	
	is_triggered_only = yes

	option = {
		name = taychend_flavour.25.a
		
		add_prestige = 15
		gain_taychend_glory_effect = { amount = 100 }
		
		add_ruler_modifier = {
			name = tf_ghostslayer_mod
			duration = -1
		}
		
		clear_global_event_target = tf_dey_vettaga_prov
	}
}

####################################################### Chendhyan Events ######################################################

country_event = { # incoming chendhyan raid
	id = taychend_flavour.26
	title = taychend_flavour.26.t
	desc = taychend_flavour.26.d
	picture = CONQUEST_eventPicture
	
	is_triggered_only = yes

	trigger = {
		OR = {
			culture_group = taychendi_ruinborn_elf
			primary_culture = ambhen
		}
		NOT = { religion = askaeorg }
		NOT = { has_country_modifier = tf_defeated_chendhyan_raid_mod }
		any_owned_province = {
			OR = {
				region = gauraddhi_region 
				area = korrimutren_area
				area = darkalyndar_area
				area = marhed_rayodana_area
				area = urvand_area
				area = clematar_area 
			}
		}
		OR = {
			chendhya_region = {
				type = any
				religion = askaeorg
			}
			
			gauraddhi_region = {
				type = any
				religion = askaeorg
			}
		}
	}

	option = { # attempt to fight off the raid
		name = taychend_flavour.26.a
		add_mil_power = -5
		hidden_effect = {
			random_list = {
				30 = {
					country_event = { 
						id = taychend_flavour.28 # chendhyan raid defeated
						days = 90
					}
					modifier = {
						factor = 1.5
						num_of_cavalry = 10 # tag has 10 cav regiments
					}
					modifier = {
						factor = 1.5
						tag = J75 # is rakkabuttai
					}
					modifier = {
						factor = 1.5
						mil = 5 # monarch has mil skill of >5
					}
					modifier = {
						factor = 1.5
						num_of_owned_provinces_with = {
							value = 3
							fort_level = 2 # tag has forts in gauraddhi + affected areas
							OR = {
								region = gauraddhi_region 
								area = korrimutren_area
								area = darkalyndar_area
								area = marhed_rayodana_area
								area = urvand_area
								area = clematar_area 
							}
						}
					}
				}
				70 = {
					country_event = { 
						id = taychend_flavour.27 # chendhyan raid victorious
						days = 90
					}
				}
			}
		}
	}
	
	option = { # ignore it
		name = taychend_flavour.26.b
		
		random_owned_province = {
			limit = {
				OR = {
					region = gauraddhi_region 
					area = korrimutren_area
					area = darkalyndar_area
					area = marhed_rayodana_area
					area = urvand_area
					area = clematar_area 
				}
			}
			add_devastation = 15
			add_province_modifier = {
				name = tf_raided_by_chendhyans_mod
				duration = 1825
			}			
		}
		
		lose_taychend_glory_effect = { amount = 50 }
		add_prestige = -10
	}
	
	option = { # pay the chendhyans off
		name = taychend_flavour.26.c
		add_years_of_income = -0.25
		add_prestige = -10
		lose_taychend_glory_effect = { amount = 10 }
	}
}

country_event = { # chendhyan raid victorious
	id = taychend_flavour.27
	title = taychend_flavour.27.t
	desc = taychend_flavour.27.d
	picture = CONQUEST_eventPicture
	
	is_triggered_only = yes

	option = {
		name = taychend_flavour.27.a
		
		random_owned_province = {
			limit = {
				OR = {
					region = gauraddhi_region 
					area = korrimutren_area
					area = darkalyndar_area
					area = marhed_rayodana_area
					area = urvand_area
					area = clematar_area 
				}
			}
			add_devastation = 15
			add_province_modifier = {
				name = tf_raided_by_chendhyans_mod
				duration = 1825
			}
		}
		add_manpower = -2.5
		add_prestige = -10
	}
}

country_event = { # chendhyan raid defeated
	id = taychend_flavour.28
	title = taychend_flavour.28.t
	desc = taychend_flavour.28.d
	picture = CONQUEST_eventPicture
	
	is_triggered_only = yes

	option = {
		name = taychend_flavour.28.a
		
		add_army_tradition = 15
		gain_taychend_glory_effect = { amount = 50 }
		add_manpower = -1
		
		add_country_modifier = {
			name = tf_defeated_chendhyan_raid_mod
			duration = 3650
		}
	}
}

country_event = { # chendhyan incursion
	id = taychend_flavour.29
	title = taychend_flavour.29.t
	desc = taychend_flavour.29.d
	picture = CONQUEST_eventPicture
	
	is_triggered_only = yes

	trigger = {
		OR = {
			culture_group = taychendi_ruinborn_elf
			primary_culture = ambhen
		}
		NOT = { religion = askaeorg }
		any_owned_province = {
			any_empty_neighbor_province = {
				region = chendhya_region
			}
		}
	}

	option = {
		name = taychend_flavour.29.a
		random_owned_province = {
			limit = {
				any_empty_neighbor_province = {
					region = chendhya_region
				}
			}			
			spawn_rebels = {
				type = askaeorg_rebels
				size = 2
			}
		}
	}
}

country_event = { # chendhyan warlord pledges service
	id = taychend_flavour.30
	title = taychend_flavour.30.t
	desc = taychend_flavour.30.d
	picture = CONQUEST_eventPicture
	
	is_triggered_only = yes

	trigger = {
		OR = {
			religion = gods_of_the_taychend
			religion = gods_of_the_taychend_reformed
		}
		NOT = {
			tag = J75 # not rakkabuttai
		}
		any_owned_province = {
			culture = chendhyan
			OR = {
				religion = gods_of_the_taychend 
				religion = gods_of_the_taychend_reformed 
			}
		}
	}

	option = { # use him as an advisor
		name = taychend_flavour.30.a
		
		add_manpower = 2.5
		custom_tooltip = tf_random_chendhyan_advisor_50_tt
		hidden_effect = {
			random_list = { # generates random chendhyan advisor 50% off
				#Adm
				1 = { define_advisor = { type = artist skill = 1 culture = chendhyan cost_multiplier = 0.5 } }
				1 = { define_advisor = { type = inquisitor skill = 1 culture = chendhyan cost_multiplier = 0.5 } }
				1 = { define_advisor = { type = master_of_mint skill = 1 culture = chendhyan cost_multiplier = 0.5 } }
				1 = { define_advisor = { type = natural_scientist skill = 1 culture = chendhyan cost_multiplier = 0.5 } }
				1 = { define_advisor = { type = philosopher skill = 1 culture = chendhyan cost_multiplier = 0.5 } }
				1 = { define_advisor = { type = theologian skill = 1 culture = chendhyan cost_multiplier = 0.5 } }
				1 = { define_advisor = { type = treasurer skill = 1 culture = chendhyan cost_multiplier = 0.5 } }
				1 = { define_advisor = { type = court_mage skill = 1 culture = chendhyan cost_multiplier = 0.5 } }
				#Dip
				1 = { define_advisor = { type = colonial_governor skill = 1 culture = chendhyan cost_multiplier = 0.5 } }
				1 = { define_advisor = { type = diplomat skill = 1 culture = chendhyan cost_multiplier = 0.5 } }
				1 = { define_advisor = { type = naval_reformer skill = 1 culture = chendhyan cost_multiplier = 0.5 } }
				1 = { define_advisor = { type = navigator skill = 1 culture = chendhyan cost_multiplier = 0.5 } }
				1 = { define_advisor = { type = spymaster skill = 1 culture = chendhyan cost_multiplier = 0.5 } }
				1 = { define_advisor = { type = statesman skill = 1 culture = chendhyan cost_multiplier = 0.5 } }
				1 = { define_advisor = { type = trader skill = 1 culture = chendhyan cost_multiplier = 0.5 } }
				#Mil
				1 = { define_advisor = { type = army_organiser skill = 1 culture = chendhyan cost_multiplier = 0.5 } }
				1 = { define_advisor = { type = army_reformer skill = 1 culture = chendhyan cost_multiplier = 0.5 } }
				1 = { define_advisor = { type = commandant skill = 1 culture = chendhyan cost_multiplier = 0.5 } }
				1 = { define_advisor = { type = grand_captain skill = 1 culture = chendhyan cost_multiplier = 0.5 } }
				1 = { define_advisor = { type = recruitmaster skill = 1 culture = chendhyan cost_multiplier = 0.5 } }
				1 = { define_advisor = { type = fortification_expert skill = 1 culture = chendhyan cost_multiplier = 0.5 } }
				1 = { define_advisor = { type = quartermaster skill = 1 culture = chendhyan cost_multiplier = 0.5 } }
			}
		}
	}
	
	option = { # use him as a general
		name = taychend_flavour.30.b
		
		add_manpower = 2.5
		
		create_general = {
			tradition = 50
			culture = chendhyan
		}
	}
}

country_event = { # the remnant chendhyans
	id = taychend_flavour.31
	title = taychend_flavour.31.t
	desc = taychend_flavour.31.d
	picture = CONQUEST_eventPicture
	
	is_triggered_only = yes

	trigger = {
		OR = {
			religion = gods_of_the_taychend
			religion = gods_of_the_taychend_reformed
		}
		
		capital_scope = {
			NOT = {
				OR = {
					region = chendhya_region
					region = gauraddhi_region 
				}
			}
		}
		any_owned_province = {
			OR = {
				region = yodhanchend_region
				region = larankarha_highlands_region
				region = kalavend_region
				region = southern_coast_region
			}
		}
	}
	
	immediate = {
		random_owned_province = {
			limit = {
				OR = {
					region = yodhanchend_region
					region = larankarha_highlands_region
					region = kalavend_region
					region = southern_coast_region
				}
				NOT = { culture = chendhyan }
			}
			save_event_target_as = tf_target_remnant_chendhyans
		}
	}

	option = { # protect the remnants
		name = taychend_flavour.31.a
		event_target:tf_target_remnant_chendhyans = {
			add_province_modifier = {
				name = tf_remnant_chendhyan_community
				duration = -1
			}
		}
	}
	
	option = { # expel them
		name = taychend_flavour.31.b
		event_target:tf_target_remnant_chendhyans = {
			add_base_manpower = -1
			add_province_modifier = {
				name = tf_expelled_remnants_mod
				duration = 3650
			}
		}
		add_legitimacy = 10		
		every_known_country = {
			limit = { primary_culture = chendhyan }
			add_opinion = {
				who = PREV
				modifier = tf_expelled_remnant_community
			}
		}
	}
}

country_event = { # caergarae does surf
	id = taychend_flavour.32
	title = taychend_flavour.32.t
	desc = {
		trigger = {
			OR = {
				culture_group = taychendi_ruinborn_elf
				culture_group = kheionai_ruinborn_elf
			}
		}
		desc = taychend_flavour.32.da
	}
	desc = {
		trigger = {
			primary_culture = chendhyan
		}
		desc = taychend_flavour.32.db
	}
	picture = CONQUEST_eventPicture
	
	is_triggered_only = yes

	trigger = {
		OR = {
			culture_group = taychendi_ruinborn_elf
			culture_group = kheionai_ruinborn_elf
			primary_culture = chendhyan
		}
		tf_taras_border_provinces = {
			type = any
			is_city = no
		}
		OR = {
			# non chendhyan reqs
			AND = {
				OR = {
					culture_group = taychendi_ruinborn_elf
					culture_group = kheionai_ruinborn_elf
				}
				OR = {
					owns = 2465 # clemetar
					owns = 2591 # samidon
					owns = 2595 # empkeios
				}
			}
			# caergaraen reqs
			AND = {
				primary_culture = chendhyan
				owns = 2572
				owns = 2607
			}
		}
	}

	option = { # non-chendhyan option
		name = taychend_flavour.32.a
		trigger = {
			NOT = { primary_culture = chendhyan }
			OR = {
				owns = 2465 # clemetar
				owns = 2591 # samidon
				owns = 2595 # empkeios
			}
		}
		add_years_of_income = -0.25
		add_prestige = -5
		add_navy_tradition = 5
	}
	
	option = { # chendhyan option
		name = taychend_flavour.32.b
		trigger = {
			primary_culture = chendhyan
			owns = 2572
			owns = 2607
		}
		add_years_of_income = 0.3
		add_prestige = 10
		
		if = {
			limit = {
				NOT = { owns = 2465 }
			}
			2465 = {
				owner = {
					add_opinion = {
						who = ROOT
						modifier = tf_caergarae_surfed
					}
				}
			}
		}
		
		if = {
			limit = {
				NOT = { owns = 2595 }
			}
			2595 = {
				owner = {
					add_opinion = {
						who = ROOT
						modifier = tf_caergarae_surfed
					}
				}
			}
		}
	}
}

######################################################## Sarihaddu Tribes Events #################################################

country_event = { # sarihaddu tribe migrates into our territory
	id = taychend_flavour.33
	title = taychend_flavour.33.t
	desc = taychend_flavour.33.d
	picture = CONQUEST_eventPicture
	
	is_triggered_only = yes

	trigger = {
		OR = {
			culture_group = taychendi_ruinborn_elf
			primary_culture = chendhyan
		}
		any_owned_province = {
			OR = {
				region = gauraddhi_region
				region = yodhanchend_region
			}
			OR = {
				has_terrain = desert
				has_terrain = steppe
				has_terrain = drylands
				has_terrain = highlands
			}
		}
	}
	
	immediate = {
		random_owned_province = {
			limit = {
				OR = {
					region = gauraddhi_region
					region = yodhanchend_region
				}
				OR = {
					has_terrain = desert
					has_terrain = steppe
					has_terrain = drylands
					has_terrain = highlands
				}
			}
			save_event_target_as = tf_sarihaddi_migration_target
		}
	}
	
	option = { # they may stay for longer
		name = taychend_flavour.33.a
		add_manpower = 1
		
		event_target:tf_sarihaddi_migration_target = {
			add_base_manpower = 1
			add_province_modifier = {
				name = tf_sarihaddi_migration
				duration = 3650
			}
		}
	}
	
	option = { # they may stay for a bit then leave
		name = taychend_flavour.33.b
		add_prestige = 10
	}
}

country_event = { # sarihaddu and chendhyan tribes squabble
	id = taychend_flavour.34
	title = taychend_flavour.34.t
	desc = taychend_flavour.34.d
	picture = CONQUEST_eventPicture
	
	is_triggered_only = yes

	trigger = {
		OR = {
			primary_culture = chendhyan
			culture_group = taychendi_ruinborn_elf
		}
		any_owned_province = {
			OR = {
				region = gauraddhi_region
				region = yodhanchend_region
			}
			OR = {
				has_terrain = desert
				has_terrain = steppe
				has_terrain = drylands
				has_terrain = highlands
			}
		}
	}
	
	immediate = {
		random_owned_province = {
			limit = {
				OR = {
					region = gauraddhi_region
					region = yodhanchend_region
				}
				OR = {
					has_terrain = desert
					has_terrain = steppe
					has_terrain = drylands
					has_terrain = highlands
				}
			}
			save_event_target_as = tf_sarihaddi_squabble_target
		}
	}

	option = { # side with the chendhyans
		name = taychend_flavour.34.a
		every_owned_province = {
			limit = { culture = chendhyan }
			add_unrest = -2
		}
		add_yearly_manpower = 0.25
	}
	
	option = { # side with the sarihaddi
		name = taychend_flavour.34.b
		every_owned_province = {
			limit = { culture = sarihaddi }
			add_unrest = -2
		}
		custom_tooltip = tf_random_sarihaddi_mil_advisor_50_tt
		hidden_effect = {
			random_list = { # generates random sarihaddi advisor 50% off
				#Mil
				1 = { define_advisor = { type = army_organiser skill = 1 culture = sarihaddi cost_multiplier = 0.5 } }
				1 = { define_advisor = { type = army_reformer skill = 1 culture = sarihaddi cost_multiplier = 0.5 } }
				1 = { define_advisor = { type = commandant skill = 1 culture = sarihaddi cost_multiplier = 0.5 } }
				1 = { define_advisor = { type = grand_captain skill = 1 culture = sarihaddi cost_multiplier = 0.5 } }
				1 = { define_advisor = { type = recruitmaster skill = 1 culture = sarihaddi cost_multiplier = 0.5 } }
				1 = { define_advisor = { type = fortification_expert skill = 1 culture = sarihaddi cost_multiplier = 0.5 } }
				1 = { define_advisor = { type = quartermaster skill = 1 culture = sarihaddi cost_multiplier = 0.5 } }
			}
		}
	}
	
	option = { # force a compromise
		name = taychend_flavour.34.c
		
		event_target:tf_sarihaddi_squabble_target = {
			add_unrest = 4
		}
		
		add_yearly_manpower = 0.1
		custom_tooltip = tf_random_sarihaddi_mil_advisor_25_tt
		hidden_effect = {
			random_list = { # generates random sarihaddi advisor 25% off
				#Mil
				1 = { define_advisor = { type = army_organiser skill = 1 culture = sarihaddi cost_multiplier = 0.75 } }
				1 = { define_advisor = { type = army_reformer skill = 1 culture = sarihaddi cost_multiplier = 0.75 } }
				1 = { define_advisor = { type = commandant skill = 1 culture = sarihaddi cost_multiplier = 0.75 } }
				1 = { define_advisor = { type = grand_captain skill = 1 culture = sarihaddi cost_multiplier = 0.75 } }
				1 = { define_advisor = { type = recruitmaster skill = 1 culture = sarihaddi cost_multiplier = 0.75 } }
				1 = { define_advisor = { type = fortification_expert skill = 1 culture = sarihaddi cost_multiplier = 0.75 } }
				1 = { define_advisor = { type = quartermaster skill = 1 culture = sarihaddi cost_multiplier = 0.75 } }
			}
		}
	}
}

#######################################################################		VALIDAUNÉA EVENTS		#######################################################################

country_event = { #Between Two Worlds
	id = taychend_flavour.40
	title = taychend_flavour.40.t
	desc = taychend_flavour.40.d
	picture = muslimgfx_COMET_SIGHTED_eventPicture
	
	trigger = {
		tag = J70
		is_year = 1470
	}

	is_triggered_only = yes
	fire_only_once = yes
	
	option = { #Kheionay
		name = taychend_flavour.40.a
		add_prestige = 10
		add_estate_loyalty = {
			estate = estate_church
			loyalty = 10
		}
	}

	option = { #Khyesionai
		name = taychend_flavour.40.b
		add_stability = -3
		change_religion = kheionism
		capital_scope = { change_religion = kheionism }
		set_ruler_religion = kheionism
		if = {
			limit = { has_heir = yes }
			set_heir_religion = kheionism
		}
		set_estate_privilege = estate_church_validaunean_syncretism
		add_estate_loyalty = {
			estate = estate_nobles
			loyalty = -50
		}
		if = {
			limit = {
				num_of_cities = 6
			}
			custom_tooltip = taychendi_revolt_5_tt
			for = {
				amount = 5
				effect = "random_owned_province = { limit = { NOT = { has_province_flag = validaunea_revolt } } gods_of_the_taychend_rebels = 1 set_province_flag = validaunea_revolt }"
			}
		}
		else = {
			custom_tooltip = taychendi_revolt_2_tt
			for = {
				amount = 2
				effect = "random_owned_province = { limit = { NOT = { has_province_flag = validaunea_revolt } } gods_of_the_taychend_rebels = 1 set_province_flag = validaunea_revolt }"
			}
		}
	}
}

country_event = { #The Bastard Prince
	id = taychend_flavour.41
	title = taychend_flavour.41.t
	desc = taychend_flavour.41.d
	picture = muslimgfx_DEATH_OF_HEIR_eventPicture

	trigger = {
		tag = G79
		is_year = 1470
	}
	is_triggered_only = yes
	fire_only_once = yes
	
	option = { #Olorises wins
		name = taychend_flavour.41.a
		kill_heir = {}
		define_ruler = {
			name = "Olorises 'the Great'"
			dynasty = "Pulojith"
			culture = thekvrystana
			adm = 6
			dip = 2
			mil = 6
			age = 19
		}
		hidden_effect = {
			set_ruler_flag = vt_olorises
			country_event = {
				id = taychend_flavour.42
				days = 1825
			}
		}
	}

	option = { #I don't want to play Pontus
		name = taychend_flavour.41.b
		random_owned_province = {
			limit = {
				is_capital = no
			}
			spawn_rebels = {
				type = pretender_rebels
				size = 2
				leader = "Olorises Pulojith"
			}
		}
		add_yearly_manpower = -1
		set_country_flag = G79_chose_taychend
		set_country_flag = vuls_tenvach_civil_war
		hidden_effect = {
			add_legitimacy = -70
			set_country_flag = vuls_tenvach_civil_war
			country_event = {
				id = flavour_vulstenvach.15
				days = 30
				random = 30
			}
		}
	}
}

country_event = { #The Offer at Gena
	id = taychend_flavour.42
	title = taychend_flavour.42.t
	desc = taychend_flavour.42.d
	picture = SPY_eventPicture

	is_triggered_only = yes

	immediate = {
		hidden_effect = {
			add_legitimacy = -70
			set_country_flag = vuls_tenvach_civil_war
			country_event = {
				id = flavour_vulstenvach.15
				days = 30
				random = 30
			}
		}
	}

	option = {
		name = taychend_flavour.42.a
		add_ruler_modifier = {
			name = tf_heir_of_laskaris
			duration = -1
		}
		add_stability = -3
		change_religion = kheionism
		capital_scope = { change_religion = kheionism }
		set_ruler_religion = kheionism
		if = {
			limit = { has_heir = yes }
			set_heir_religion = kheionism
		}
		set_estate_privilege = estate_church_validaunean_syncretism
		add_estate_loyalty = {
			estate = estate_nobles
			loyalty = -50
		}
		tooltip = {
			random_owned_province = {
				gods_of_the_taychend_rebels = 1
			}
		}
		if = {
			limit = {
				num_of_cities = 6
			}
			custom_tooltip = taychendi_revolt_5_tt
			for = {
				amount = 5
				effect = "random_owned_province = { limit = { NOT = { has_province_flag = validaunea_revolt } } gods_of_the_taychend_rebels = 1 set_province_flag = validaunea_revolt }"
			}
		}
		else = {
			custom_tooltip = taychendi_revolt_2_tt
			for = {
				amount = 2
				effect = "random_owned_province = { limit = { NOT = { has_province_flag = validaunea_revolt } } gods_of_the_taychend_rebels = 1 set_province_flag = validaunea_revolt }"
			}
		}
		hidden_effect = { every_owned_province = { clr_province_flag = validaunea_revolt } }
		custom_tooltip = tv_chose_validaunea_tt
		set_country_flag = G79_chose_validaunea	
	}

	option = {
		name = taychend_flavour.42.b
		add_prestige = 20
		add_estate_loyalty = {
			estate = estate_church
			loyalty = 10
		}
		custom_tooltip = tv_chose_taychend_tt
		set_country_flag = G79_chose_taychend
	}
}

#Wolf's Gambit moved to flavor_ameion.6 -Ditto
